VP VBZ SBAR ADVP , SBAR->1
NP NP : NP :->4
SINV '' S , '' VP NP , S .->1
WHNP DT NN->2
CONJP CC CC->1
S `` INTJ , NP VP . ''->1
VP VBG PP ADVP S->1
VP VBP : PRN : NP->1
VP VBD S , CC VP->1
ADVP RBR->16
NP PRP$ CD JJ NN->1
S EDITED NP VP SU->11
NP NP JJR NN->1
VP VBD INTJ S NP->1
VP VBZ EDITED PP->1
NML '' VBN NN ''->1
VP VBN NP S , SBAR->2
NP DT JJ JJ NNP NNP->2
S NP VP , INTJ .->1
EDITED CODE VP CODE->6
S NP ADVP NP->1
NP IN JJ NN->1
FRAG INTJ CC NP SU->1
ADJP ADJP , CONJP ADJP->1
SQ VBZ NP ADJP->1
S PP NP , VP->1
FRAG CC NP S . SU->1
NP NP , NP , NP , NP , NP NP , NP , NP , NP , NP->1
SBARQ CC PP , WHADVP SQ .->1
VP MD , PP , VP->1
PP IN CC IN : PRN NP->1
PP  IN NP , , ->1
S INTJ , NP VP , SU->2
VP VB ADJP NP->2
NP NP CC NP CC ADVP NP->1
VP VBP S , ADVP->1
NP NP EDITED NP->1
VP VBZ->48
VP VBD RB ADVP S->1
NP NP , NP CC ADVP NP->1
S NP SBAR->1
QP JJR IN CD->11
ADJP FW->2
FRAG NP SBAR->1
VP VBG ADJP : S->1
ADVP RBR CC RBR->4
NP ADVP DT NN->3
NP DT JJS VBN NN->1
NP NP PRT->1
NP CD JJ NN NN->1
WHADJP RB WRB JJ->1
S NP , VP '' .->1
VP VBP PP , NP->1
SBARQ CC WHADVP SQ . SU->3
S CC SBAR , NP VP . SU->3
NP NP PP : PP->1
UCP NP CC ADVP :->1
VP NNS NP->1
VP VBN PP SBAR->4
NP PDT PRP$ NN->3
PP  JJ IN NP ->1
VP VBD SBAR , PP->1
NP NP PRN EDITED PP->1
VP VBN NP ADVP PP PP->1
VP VBD RB ADVP NP SBAR->1
VP VBZ ADJP PP->9
S NP VP . ''->69
NP NP '' S->1
S NP , PP , S , VP .->1
NP PRP$ JJ->9
SQ VBD NP ADJP .->2
NP CD SYM CD->3
S ADVP , S , CC S->2
NP CD , NML NN NNS->1
ADVP RB IN RB->2
SQ VB NP VP->2
S CC EDITED PP , NP VP .->1
RRC  NP VP ->1
VP VB PRT NP SBAR->2
VP ADVP VBG PP->3
NP DT NN ADJP JJ JJ NN->1
EDITED CODE PP CODE->4
NP DT NNPS NNPS->1
VP VBP EDITED EDITED PRN , PRN , VP ADVP->1
ADJP NML HYPH JJ->7
NP NP NAC->3
NP PRP$ JJ , JJ JJ NNS->1
VP VBD NP PP PP S->1
SINV CC VBD NP VP .->3
NML NNP , NNP->1
S `` S '' NP VP .->1
NP DT JJ CC ADVP , NP->1
FRAG : NP->1
S CC NP , NP VP , SU->1
NP NP , SQ , SQ , SQ , SQ->1
EDITED CODE NN NN CODE->1
EDITED ADVP :->3
VP VB NP NP SBAR->5
VP VBZ PP NP ADVP->1
S : NP VP :->1
ADJP JJ RB PP->1
PP NP IN S->1
S NP VP=2->1
FRAG NP , ADVP .->1
NP PRP$ JJ NNS , NNS , NNS , NNS , CC NNS->1
NP DT DT NNS->1
VP VBP RB->3
S S , CC S CC S .->1
NP DT EDITED , NN NN->1
S NP VP=3->2
S ADVP , S : S . ''->1
SBAR  EDITED S->1
S PP , SBAR , PP , '' NP VP .->1
VP VB '' NP '' PP->1
ADJP IN RB JJ->1
SQ MD NP->1
VP VBP PRT NP , S->1
VP VBG NP PP->101
VP VBG ADVP PRN->1
S CC EDITED , NP VP SU->1
NP NN RB->15
NP NP , PP . SU->1
VP VBG NP EDITED S->1
S '' NP , ADVP VP .->1
NML NP HYPH PP->2
VP VBZ INTJ VP->1
NP=1 NN->1
SQ CC SBAR VBD NP VP . SU->1
SBAR SBAR , IN S->9
VP VBZ NP  ADVP  S->1
SBAR IN CC RB S->4
NP NML NNP NNP CD->1
VP VP , VP CC ADVP VP->1
NP RB DT CD NNS->1
S CC S CC S->1
PRN  NP , NP , NP ->2
VP `` VB '' PP->1
NP '' NML '' JJ NNS->1
NP DT ADJP , NN->1
 PP->46
VP VBD RB ADVP NP->3
S CC SBAR NP VP . SU->6
S NP , SBAR , S , CC S .->1
NP NNP NNP JJ NN->1
ADJP ADJP SBAR PP->1
S PP , NP , PP , VP .->2
S NP , PRN , VP->10
NML DT NNP->1
VP  VBN NP PP ->2
NP WP->2
ADVP RB RBR->13
S CC : NP VP . ''->1
VP VBD S S->1
NP NNP NN->23
NP DT NML , NML , NML , NML , NML->1
QP RBR IN $ CD CD->1
S NP SU->1
SBARQ SBARQ , SBARQ->1
FRAG NP , NP ,->1
VP VBG PP ADVP->15
PP TO SBAR->17
NP DT `` NML->1
S SBAR , S->1
ADVP RB RB PP S->1
VP MD ADVP ADVP VP->4
NP NP , ADVP->6
NP NP VP PP->3
NP NFP NP , PP .->1
VP VBP EDITED CODE PRT->1
ADJP VBN CC VBG->1
S NP PRN VP->1
NP DT ADJP NNP NNP CC NNP NNP NNS->1
PP IN XX NP->1
NP NP JJ NN->28
S CC :->2
NP QP JJ NNS->10
NP CD ADJP JJ NNS->3
VP VBN NP PP ADVP , S->1
VP VB INTJ EDITED INTJ NP SBAR->1
NP NP : NP ->1
VP VBD INTJ , '' NP->1
SBAR SBAR SBAR->1
S CC . SU->1
S NP , PP , VP->8
VP CONJP VP CC VP->1
VP VBN ADJP PP->1
QP RB DT NN IN CD->1
PP JJ IN->1
NP DT JJ '' JJ NN ''->1
NP NP UCP->4
VP VP CC , PRN , VP->1
VP VBN NP PRT PP SBAR->1
VP VB S PP->4
NML NNP NN->12
PP ADVP PP->1
VP VBD PP SBAR ADVP->2
S CC EDITED S VP SU->1
NP DT NML , NN NN->1
NP JJ PP->1
NML JJ JJ JJ NN->1
VP VP CC PP VP->1
NP QP NN NNS->1
ADJP JJR->23
VP VBD NP PP->174
VP VBN ADVP SBAR->1
VP VB INTJ PP->1
VP VBD ADJP S NP->1
S SBAR , INTJ , NP VP->1
NP NN CC JJ NN NNS->1
VP VBN NP PP PP PP PP , SBAR->1
PP PP CONJP PP->4
VP VBZ VP  NP  S->1
NP  NNP  NNP->1
VP VBP , PP , PP->2
S CC EDITED INTJ NP VP SU->1
NP NNP HYPH NN->1
NP JJ .->4
VP VBN PP PP->15
S CC EDITED , INTJ , NP VP . SU->1
ADJP CD->6
PP IN :->1
NP DT JJS CD NNS->1
SBARQ INTJ , WHNP SQ .->5
VP VB PP PP , SBAR->1
NP NP , VP->40
VP NN PP->1
S NP , PP , VP .->11
PP VBN SBAR->2
VP VBN NP , S->2
SBAR IN S->1384
VP '' VB NP '' PP->1
VP VBP RB PP->3
S PP , NP VP SBAR->1
VP VBP S NP->1
NP NNPS `` NNP '' NNP NNP->1
NP NP , PP->54
VP ADVP VBG S->1
INTJ JJ . SU->1
VP VBN NP , ADVP , PP , SBAR->1
VP VBN NP PP PRN->1
S  NP ADVP VP , PRN . ->1
NML NNP NNP->202
S CC NP ADVP DT VP .->1
VP VBN NP PP PP S->1
NP NN->1823
FRAG S , CC INTJ .->1
VP VBD : S->3
INTJ JJ NN SU->2
S CC PP NP VP .->1
VP MD VP NP->1
S S , S , S->3
NP NP : '' SBAR->1
VP VB CC VP->1
VP VB ADVP VP->5
VP VBG PRT PP ADVP->1
VP VBG NP NP PP->1
VP VBZ , PP , SBAR->1
VP VBZ PP , PP , SBAR->1
S SBAR , PRN , S , CC S .->1
NP VBG NML NNS->1
S NP , S , S , VP :->3
SINV VBZ SBAR NP->1
VP VP CC ADVP EDITED VP->1
SQ INTJ , VBD ADVP VP NP .->3
VP VBD RB ADVP VP->7
NP NN POS->25
VP VBZ NP SBAR ADVP->1
NP DT NML , NN->1
VP VP VP->4
S CC NP EDITED , EDITED , DT VP . SU->1
NP JJ NNS POS->1
ADJP ADJP ADJP->2
NP JJ NNS NN->1
S CC NP , PRN , VP .->1
VP VB NP SBAR , PP->1
ADJP RB JJS->1
S NP PRN , VP->1
S S VP . ''->1
NP NFP NP , ADJP .->1
NP UCP NML->1
PP IN IN->1
S CC PP , EDITED ADVP , NP ADVP VP .->1
VP VB EDITED , NP->1
VP VB SBAR ADVP->3
S INTJ , S , CC S .->6
NP DT JJ NNS .->2
VP VBN NP CC VBN NP PP->1
FRAG LST NP->1
NP DT JJ->67
SQ VBD RB NP VP .->1
NP NP VBG NN->2
VP VBD  NP  : S->1
S S , S , FRAG , S->1
PP IN `` ADJP ''->2
S S , RB S->1
NP VBD , VBD , CC VBD->1
NP DT JJ NN NNS->14
VP VBZ NP->529
NP NN NNS NN->1
VP VBD S PP , S->1
NP NP JJ NML->1
VP VBZ NP PP PP->5
NP '' NN '' CC '' NN ''->1
SBAR IN FRAG->10
S S , CC S , CC S , CC , S ADVP->1
PP RB PP CC PP->1
NP DT NNS CC NN->2
NML JJ NNP NN->1
S `` S , '' NP VP . ''->1
NP NP PP PRN->3
FRAG ADVP , NP->26
VP VP CC PRN VP CC PP ADVP VP->1
INTJ UH , UH->2
S PRN S .->1
SQ ADVP , MD RB NP VP->1
 FRAG->197
PP RB IN S->3
SBARQ SBARQ , SBAR .->1
NP NNP , NNP , NNP , CC NNP->1
FRAG INTJ , ADVP . SU->1
VP VB PP->308
VP VBD EDITED PRN , NP->1
NP NP PP NP->3
NP JJ NNP NN NNS->1
NP NP , PRN , PP->1
NML JJ JJ->1
VP MD ADVP VP , SBAR->1
VP MD VP->915
S SBAR , ADVP NP ADVP VP .->1
VP VBG ADVP , NP->2
SQ VB NP VP .->2
VP VBZ NP INTJ->1
NP DT NNP JJ NN->7
FRAG WHADVP PP .->2
VP VP CC ADVP VP NP->3
NP S : NP->1
NP NNP , CD->1
S INTJ , NP NP VP SU->1
VP VBN NP PRT , INTJ->1
NP PDT DT NN NNS->1
VP VBZ ADVP ADVP->1
NP DT RBS NML->1
VP VBG PP->182
VP VB NP PRT S->1
FRAG NP , UCP .->1
VP VBG NP NP->10
VP VBN NP S->86
ADVP RB RB->194
NP NP SBAR , SBAR->1
S S S->2
UCP NNP CC JJ->2
VP VBZ RB ADVP->1
VP VBP RB , PP , NP->1
NP NN , NNS CC NNS->1
VP ADVP VBG NP->2
NP NP PP PP->145
NP JJ CC NN->2
VP VBP ADJP PRN->1
VP VBN INTJ INTJ NP->1
NP DT NNP NNP POS->3
NP DT VBN JJ JJ NN->1
PRN  S , ->1
VP VB NP PP , INTJ->1
VP VBN ADVP , S->1
VP VBZ NP , PP->3
S CC EDITED NP VP .->3
VP VBN NP S SBAR->4
NML NNP HYPH NNP->4
VP VBD RB NP PP->1
VP VBN ADVP NP->1
NP NAC CD NNP NNP->1
NP ADJP NN->46
VP VBN NP PP , ADVP->1
VP VBZ INTJ->2
FRAG PP , NP . SU->1
INTJ UH . SU->13
WHNP WP DT JJ , JJ NN->1
NP NP NNS CC NNS->2
VP VP CC RB ADVP->1
UCP ADJP CC NP->2
NP DT NNP NNP NNP CD->1
VP VB , S->1
NP RB DT JJ JJ NNS->1
NP DT NNP NNPS->11
VP VBD NP PP , ADVP->1
VP VBD , S->5
S EDITED EDITED NP VP SU->2
VP VB PP SBAR SBAR->1
S NP PRN VP .->1
S CC PP , PRN , NP VP . SU->1
FRAG NP VP->1
VP VBP , SBAR->1
FRAG INTJ , NP .->8
SBAR IN IN S .->2
ADJP JJ->503
S NP , SBAR : `` VP . ''->1
VP VB , PRN , ADVP NP->1
VP VBZ , PP , PP->2
VP VBG NP S->24
NP DT FW->2
NP NNPS->39
VP VBN PRT->2
VP VBD ADVP , PP->1
S NP VP , CC NP VP .->1
NP DT VBN ADJP NN->1
NP NP '' NP ''->2
S SBAR , PRN , NP VP .->1
UCP PP NAC->1
FRAG INTJ , CC S .->1
NAC NNP , NNP ,->1
SBAR  WHNP S ->2
VP VB NP ADVP EDITED PP->1
VP ADVP VBN NP PP->8
S ADVP NP ADVP VP .->1
VP VBP , SBAR , SBAR->1
NP NP , '' '' NP , '' '' NP , '' CC '' NP->1
NP DT '' JJ NN NN->1
NP DT NNS , NN , CC NN->1
VP VBN PP ADJP PP->1
PP IN `` S ''->2
VP VP CC VP->228
NP DT NN , CC NN->2
VP VBZ NP PRT PP->1
NP NNP , NNP->15
NP NP PP .->12
UCP ADJP , ADJP , CC PP->1
VP VBP SBAR->267
INTJ JJ SU->1
FRAG INTJ INTJ SU->1
NP NP NP , NP , NP , CC NP->1
PP IN , INTJ , NP->3
VP VBP `` FRAG ADVP->1
SINV `` S , '' VP NP->1
NP '' NNP ''->2
NP JJ JJ NNS CC NNS->2
NP WDT NNS->2
NP NNP CC NNP POS->1
S NP , NP ADVP VP->1
NP `` NP , '' NP->1
ADJP NML JJ->24
ADJP JJR SBAR->1
NML CD NNS->6
S SBAR NP , ADVP NP VP .->1
S EDITED CC NP VP SBAR SU->1
QP JJR IN $ CD->1
FRAG ADJP ADJP .->1
NP `` S '' CC NP->1
VP MD EDITED VP->1
S INTJ , NP , NP VP .->1
FRAG INTJ NP SU->2
VP VB , SQ->1
QP CC CD->3
S '' S , '' NP VP .->3
PRT RB->1
S S . ''->1
SQ CC MD NP VP .->11
S CC NP , VP . ''->1
S NP VP , NP , VP->1
VP VBP NP INTJ->1
VP VBD PRT PP NP->2
NML NML PP->37
SQ SBAR , '' VBD NP VP .->1
S CC INTJ NP ADVP VP SU->1
S S CC S PP->1
NP NP , NP , NP NP->2
VP VBN NP ADVP PP , NP->1
UCP VP CC ADJP->1
VP VBZ , '' PRN , NP->1
VP VB NP , PRN , NP->1
NP '' DT JJS NN ''->1
NP PRP NNS->1
VP VBG EDITED PP->1
NP ADJP DT JJ NN->1
VP=3 VBN NP->1
NP DT VBN NML NN NN NN->1
S ADVP , NP ADVP VP . SU->1
NP NP CC NP .->1
S PRN , SBAR , NP VP .->2
NP NP SBAR , PP->2
VP VBD ADVP->42
S NP ADVP VP .->59
S ADVP : NP VP->1
VP VBD RB VP->91
VP VBN NP PRT , PP , SBAR , S->1
UCP PP , CC ADVP NP->1
VP VB NP S , ADVP->1
VP VBP NP , INTJ->1
VP CC VBD CC VBD SBAR->1
ADVP NP IN->1
VP VBN S ADVP->2
VP VB PP NP->11
NP NN , NN , NN , NN CC NN->1
ADJP VBG , VBG , CC VBG->1
NP PRP$ ADJP NN NN->2
VP VBG NP ADVP PP->3
NP DT NN JJ NN->5
SINV ADVP VP NP PP NP , S .->1
NP '' NN ''->1
NP VBN NN SBAR->1
VP VBP PP PP->8
VP VB PP , NP->3
NP NNS NML->2
ADJP JJ NP->3
VP VBP S SBAR->4
NP NML JJ NNS->1
ADJP JJ CC JJ S->1
VP ADVP VBN ADVP PP->1
NP DT NNP JJ NNS->2
VP VBP ADVP , SBAR->1
NP NNP NNP NNP POS->13
VP VB PRT PP PP S->1
SBAR IN '' S->2
NP DT NN CC NNS->5
S S NP VP->1
FRAG ADJP->4
VP VBP NP SBAR ADVP->1
NP DT NN CC JJ NNS CC NNS->1
QP RB NNS->1
S S CC EDITED S , CC S->1
NP NP CC->2
NP FRAG , PP->1
NML NML RRC->1
VP VBZ PP S , '' S->1
VP VBD ADVP ADVP VP->1
PP IN EDITED NP->4
NP DT NNS JJ NN->1
VP VBZ PP SBARQ->1
NP NP PP PP PP->9
NP DT NNP NNP PP->1
NP DT NNP NNS CC JJ NNS NN->1
PP IN INTJ S->1
SBAR IN S . SU->1
VP MD , INTJ , VP->1
ADVP RBR PP->1
VP VB NP PP NP->5
NP NP , PP .->3
FRAG INTJ , ADJP . SU->1
VP VBP ADVP NP PP->1
NP NML NNPS POS->4
S NP , PRN , VP .->8
VP VBP ADVP S->2
VP VBG PP PRN->1
NP DT , UH , JJ CD NNS->1
ADVP RP RB->1
NP JJ NN CC NN NNS->1
VP VBN NP PP PP , S->2
S NP , ADVP ADVP , VP .->1
NP NP PP S->2
NP DT JJ NN NN NN->4
NP JJ NNS  CC NN ->1
VP VP  CC , ADVP , VP  NP->1
NP JJ JJ NN CC NN->1
S NP , NP VP ,->1
SBARQ CC WHNP SQ . .->1
VP MD '' VP->1
NP RB NNP->2
S `` NP VP , .->1
ADJP JJ JJ , JJ , CC JJ->1
NP DT CD JJ JJ NNS->1
SQ VBP NP ADVP VP SU->1
VP VP : VP->1
VP VBD SBAR ADVP->14
VP VB SBAR , SBAR->1
S S , CC RB->1
S  NP VP : ->1
S SBAR , NP VP->41
VP VP CC VP CC VP , SBAR->1
EDITED CODE VBG CODE->1
NP NP , PP :->1
S NP VP : `` S->1
ADJP JJ SU->1
SBAR PP->2
NP JJ NML->4
VP VBP ADJP , NP->1
VP VBN NP PP S->12
FRAG CC PP : CC S :->1
VP VBP , SBAR , S->1
NP S , '' '' NP , '' CONJP NP->1
VP VBP ADJP , S->1
S SBAR , ADVP NP VP .->4
VP VBD PRT NP PP->3
NP NP : SINV .->1
VP VBD PP , EDITED S->1
S S , S , S .->1
NP PRP$ NML NN NN->1
NP RB NN NN CD->1
NP DT VBG NNP->1
WHADVP RB->1
NP QP NML NNS->2
NML JJ HYPH NNS->1
VP VBD NP S->49
NP NP CC NP NP->2
SBAR SBAR SBAR SBAR->2
VP VP , CC VP->29
VP VBZ ADJP , PP , PP->1
NP DT JJ `` NNP '' NNP->1
VP VBN NP PP S ADVP->1
VP VBP RB ADVP S->1
NP JJR->22
NP DT NNP NNS NN->1
NP NP PRN NP->2
NP NP , RRC ,->1
S INTJ NP VP SU->57
SBAR PRN , WHNP S .->1
NP NNP NNP CC NNP NNP->2
FRAG NP , INTJ .->1
VP TO EDITED VP->1
VP VBN NP : ADVP : PP->1
VP VB PRT NP S->1
VP VB NP PP SBAR->12
VP VBD PRT PP->9
NP NP CC SBAR CC SBAR->1
NP RB NNS->2
VP VP CC VP CC VP->4
NP RB RB->2
S `` NP , '' PRN , '' VP .->1
NP NP ADVP , INTJ , PP->1
NP NP NNP->12
NP NP , NP , ADVP NP ,->1
S ADVP , PP , NP VP .->4
SQ VBZ NP ADVP NP SBAR .->1
NP NP PP :->3
NP PRP$ ADJP JJ NN->2
NP CD ADJP NNS->2
S NP PP VP .->1
VP ADVP VBN NP '' S->1
UCP ADJP CC PP->1
VP VBD NP PRN->1
NP JJ JJ NN .->1
VP VBP ADVP NP->10
S CC NP NP VP : SU->1
EDITED CODE RB CODE->5
PP IN ADVP->23
NP DT NN .->3
S CC S CC S NP .->1
NP DT JJ JJ NN->64
NML JJ JJ NN->2
ADVP IN JJS->16
VP VBP PP NP->3
SBARQ WHNP PP->1
S CC S NP VP SU->1
NP VBN JJ NN NNS->1
VP VBD ADJP , PP->1
VP VP , VP , CC VP->6
VP VB , PP->1
INTJ UH CC UH->1
VP VBZ , ADVP , ADJP->1
PP PP : CC , PRN , RB PP->1
NP NP PP , UCP->1
S ADVP , SBAR , NP VP . ''->1
S LST , NP VP .->3
VP VBZ SBAR SBAR->2
QP JJR IN $ CD CD->1
VP VBD EDITED SBAR->1
S LST , NP VP->1
NX NN VBG NN->1
PP IN->20
NP RB DT NML NN SBAR->1
NP NP CC , PP , NP->1
NML NML NNP->10
S CC NP ADVP VP . '' SU->2
SQ VBZ NP->1
UCP CC NP , CC SBAR->1
VP VB '' NP ''->1
NP NNP NNP NNPS NN NNP NNP->1
VP VBP INTJ NP->1
S S : SBARQ .->1
NP NN , NN CC NN->4
SINV `` S , '' VP NP .->3
NP NP , NP , NP , NP .->1
VP VBD RB S->1
VP PP->2
SINV ADJP VP NP->2
NML QP NN->3
NP PRP POS->5
NP NP NP .->4
S CC PP , NP VP .->10
NP DT NML NN NNS->1
NP CD POS->1
NP NNS SYM NNS SYM NNS SYM NNS->1
NP DT NML NNS CC NNS->1
EDITED CODE PP->2
NP NP : `` S ''->1
SQ INTJ VBP NP ADVP VP SU->1
VP VBD->73
VP VBD , PP , VP->1
ADJP JJR HYPH NN->1
NP PRP$ JJ NML NNP->1
VP VBZ PP S->5
VP VBG SBAR PP , S->1
S S PRN `` CC S . ''->1
VP TO `` VP->3
S S S : S->1
NP NP `` S->3
VP VBZ NP EDITED->1
NP NP PP PP NNS->1
NP JJR NNP->1
ADJP NNS HYPH VBN->6
NP NP RB `` NP->2
VP VP CC PRN VP->1
RRC ADVP NP->1
NP PRP$ JJ JJ NN->9
NP DT NNP NNS->19
NP DT ADJP UH NN->1
NP DT NML JJ NN S->1
NP JJ VBN NNS->5
S CC INTJ INTJ NP VP SU->1
NP DT '' ADJP '' NN->1
NP DT JJ NN CC NN->4
S CC SBAR NP VP SU->3
VP ADVP VBG->1
FRAG CC NP SU->1
PP JJ IN S->2
S NP ADJP NP->1
S CC SBAR , ADVP NP VP .->1
S NP VP SU->168
SBAR CC SBAR CC SBAR->2
S ADVP , `` S '' VP .->1
NP CD NNP NNP NNP->1
NP NP , NP , NP , NP , CC ADVP->1
NP NNP CD SYM CD->1
NML DT NN->13
NP DT JJ NNP NNP->6
NP NP VBN NNS->2
NP `` PRP , '' CC `` PRP->1
SBAR IN->9
NP NNP NNP .->5
VP VBZ NP SBAR->40
S CC ADVP PP NP VP SU->2
SBARQ EDITED WHNP SQ .->1
PP VBN NP->3
SBAR  S->451
NP DT JJ JJ , UH , NN->1
VP VB CC VB PP->1
VP VBG PRT NP ADVP->1
NP NP PP '' PP , PP->2
SINV ADVP SBAR MD NP ADVP VP->1
INTJ UH->624
VP VB NP PP S->5
ADVP RBS RB CC RB->1
NP QP->23
NP DT '' JJ NN ''->1
VP VBP , ADVP , NP->1
NP NNS , NN , NN , CC NNS->1
NP JJ NNS , NNS , NNS->1
NP CD NN NN NNS->3
X XX PP->1
VP VB ADVP NP UCP->1
VP VBN ADVP : PRN :->1
NP NP CC , ADVP PP , NP->1
NP RB DT JJ NNS->3
S CC NP NP ADVP VP .->1
EDITED CODE PRP PRP PRP PRP CODE->1
SBAR ADVP IN S->40
PP IN ADJP->28
NP PRP$ NN , NN CC NNS->1
NP  JJ  JJ NNS->1
NP ADJP , ADJP NP->1
VP VB NP PP ADVP->14
NP NP : SBAR->2
NP NP NP , NP , NP , NP , NP , NP , NP , NP , CC NP , S->1
NP NP : S .->1
S NP CONJP VP->1
PP ADVP IN IN NP->2
NP NN SBAR->7
S NFP NP VP->1
ADJP RB JJ CC JJ->4
VP VP , CC ADVP VP ADVP->1
VP VBP , ADVP , SBAR->2
SQ VBZ NP ADJP ADVP->1
NP NP , NP ,->39
SQ VBD NP VP .->13
NP NN , NN , NN , CC NN->1
S CC NP VP . SU->74
NP NP , ADVP , NP->1
SBAR WHNP S->1245
NP JJ NX->2
NP NNP NP->1
FRAG PP , NP .->2
NP ADJP SBAR->1
NP DT NNP NNS CC NN NN->1
VP VBD UCP->4
NP NP NN NN->18
NP PP : NP->1
NP NML NNS S->1
VP VB NP EDITED , PP->1
VP VBP ADVP ADVP VP->2
S PP , S , CC SINV->1
QP ADVP DT NN->1
PP PP , CC PP->4
SBAR SBAR CC SBAR CC PRN SBAR : PRN : SBAR->1
ADJP JJS->2
S PRN NP VP SU->8
UCP NP CC , ADJP->1
NP NP NN NN NN->1
VP VBD ADJP , SBAR , PP PP->1
S CC ADVP NP VP .->14
SBARQ CC WHADJP SQ SU->1
S CC EDITED , EDITED , NP VP , SU->1
S S , NP VP->6
PRN : CC NN :->1
VP VB PP PP->29
VP RB VBG S->1
S PP NP VP .->33
VP VBD RB NP SBAR->1
PP VBG PP .->1
NP SBAR , NP ADVP VP .->1
PRN  `` S '' ->2
NP PDT DT->4
SBAR IN `` S->10
NP PRP CC PRP->5
 SBAR .->1
NML QP , NNS->1
VP VB NP ADVP ADVP->3
S INTJ , NP ADVP VP . SU->1
NP DT NNP NNP->202
SBAR WHNP X->1
VP TO PRN VP->3
S `` NP INTJ VP .->1
VP VBZ RB , S , NP->1
VP VBP NP : PRN :->1
SBARQ WHADJP SQ . SU->1
VP VBD DT ADVP VP->1
VP VBD PP S->9
VP VB EDITED NP->1
VP VP , CC ADVP VP->2
NP RB DT VBN NN->1
VP VBG PRT PP PP->1
NP DT VBG NML NNS->1
NP NNP .->2
S NP `` ADVP VP , ADVP VP , CC ADVP VP ADVP->1
NP VBG NNS->14
ADJP RB RBS JJ->1
VP VBN NP ADVP PP->10
PRN CODE INTJ S INTJ S S CODE->1
NP DT NML NNS->15
S EDITED SBAR INTJ S CC S->1
S PP , NP VP .->212
NP NN CC NN->50
VP VBP ADJP->105
FRAG NP , INTJ , INTJ .->1
VP VB RB->1
VP VB PP NP ADVP->1
S EDITED NP VP->8
S S , '' NP VP : .->1
ADJP RB RB JJ PP->5
VP VP , CC VP CC NP ADVP->1
VP VB NP SBAR , INTJ->1
SBAR WHADVP->6
NP JJ NNP NN->3
NP S CC NP->2
S '' NP , '' PRN , '' NP VP . .->1
ADJP RB JJ->242
NP NP , NP , S->1
NP NP , SQ->2
ADJP NN JJ->7
NP DT NNP NML NNP->3
S '' NP '' VP->1
NP PRP CC NNP->1
NP DT JJS NN RB->1
PP IN HYPH NP->5
NP NN NNP NNP NNP->1
NP DT JJS NN->18
S PP NP `` VP->1
NP DT VBN NML NN->1
VP VBZ ADVP ADJP S->1
S CC , ADVP , NP VP .->3
S CC , PP , NP VP .->2
EDITED CODE VBP CODE->3
ADJP NN HYPH JJ->15
FRAG ADVP INTJ ADVP SU->1
VP VBG PP PP PP->1
NP NNS :->1
VP VBZ SBAR ADVP->6
VP MD ADVP VP->72
NP '' NP '' PP->3
NP NNP NNP NNP CC NNP NNP->1
NP NP : CC NP->1
VP VB NP PP PP ADVP->1
NP DT NML NN NN->13
S NP , SBAR , PRN , VP .->1
WHADJP WRB JJ->17
NML NML ADVP->1
S ADVP NP VP->40
UCP SBAR CC NP->1
S PP , NP VP . ''->7
S INTJ CC EDITED NP VP SU->1
UCP PP CC SBAR CC SBAR->1
VP VBD , INTJ , UCP->1
X : XX .->1
S INTJ , INTJ NP VP .->1
NP NN CC NN NNS->2
NP DT NNP NNP NNP->50
NP NP EDITED EDITED PP->1
FRAG CC INTJ .->1
S CC NP ADVP VP .->12
NP NNS NN , NN , NN , NN , NN , NN , CC NN->2
VP VBN NP , ADVP , S->1
SQ VBP NP VP :->2
SQ MD NP VP . SU->2
NP PRP$ NN CC NN->9
SINV `` NP , '' VP NP .->1
VP VBD PP , S SBAR ADVP->1
NP '' NP : S .->1
ADJP RB : VBG->1
PP PP , CONJP PP->4
SBAR IN PRN NP->2
VP VBD S->203
SQ CC MD NP ADVP VP .->1
ADJP NP JJ->8
NP DT NNP NN NNS->2
SQ MD NP INTJ VP .->3
NP DT JJ NN NN->72
NP DT NNP NNP NNP NN->1
VP VBD NP NP ADVP->7
INTJ UH INTJ->1
VP VBD RB PP SBAR->2
VP VBD NP NP , S->1
S S CC S .->25
VP VP , VP , VP , VP , CC VP->1
VP VBZ PRT NP PP->1
PP IN '' NP ''->4
NP NP , CC NP PP->1
VP VBD NP PRT S->1
NP POS->1
EDITED CODE JJ CODE->1
NP DT NML NML->2
S INTJ , EDITED PP S .->1
VP VP CC , ADVP , VP->3
NP  NP ->1
NP NP S .->1
NP PRP$ CD NNP CD NNP->1
CONJP RB RB->19
QP RP TO $ CD->1
FRAG S : ADVP .->1
NML NML SBAR->1
NML NNP SYM NNP->1
NP NNP NNP CD->7
RRC VP->1
ADJP ADJP , CC ADVP->1
ADJP JJ CC DT->1
S S , CC S CC S ADVP->1
NP DT ADJP NNP NN NN->1
NP CD NNP NNP NN->1
NP NN NN , NN , NN , NN , CC NN->1
PP VBG , IN , CC VBG NP->1
QP CD CC RB->2
S ADVP S , CC S .->2
PP NP IN NP->6
QP JJR IN DT CD->1
NP DT S NN->1
ADJP $ CD ->1
VP VBD NP PP , NP ADVP->1
PP TO , INTJ , NP->1
S INTJ NP ADVP SU->1
SQ `` SQ , `` SQ .->1
NP NML NML NNP->1
VP VBZ , `` INTJ->1
NP NN JJ->1
 X->1
EDITED CODE RB NP CODE->1
EDITED NP :->14
SBAR IN RB FRAG->1
SBAR NP VP->2
NP PRP$ UH NN NN->1
PP TO S->30
S S CC S ADVP->3
VP VBZ NP INTJ ADVP->1
S INTJ , SBAR , NP VP .->1
S SBAR , S , S CC S .->1
WHPP IN WHNP .->2
SBARQ CC WHADVP SQ :->1
VP VBP ADVP ADVP SBAR->1
VP VBG , PP , SBAR->1
QP CD CD TO CD CD->1
NP NP CC NP SBAR->1
VP VB NP EDITED PP->1
WHNP WHADJP->3
VP VBZ NP : NP->1
VP VBZ NP . ''->1
NP DT NML JJ NNS->1
NP ADVP , NP , '' NP->1
S INTJ , PP , NP ADVP VP .->1
FRAG WHADVP NP .->1
SINV S , VP NP .->1
NP  DT NML NN . ->1
VP VB NP PP ADVP SBAR->1
SBARQ EDITED , WHNP SQ . SU->1
NP NP NNPS->1
VP VBN NP PRT PP ADVP->1
VP VBZ : S , SBAR->1
S CC NP INTJ VP .->3
SQ VBD ADVP VP NP->1
NML DT NNP NNP->1
VP VBZ NP PRN PP->1
SQ INTJ , VBP NP VP .->3
NP NNP NNP , NNP->2
S  NP VP .->2
VP VBD NP VP->1
NML NP NN->1
FRAG SBAR , SBAR .->1
SQ VBP NP ADVP VP .->2
VP VBD RB ADVP ADVP->1
NP DT  JJ  JJ NN->1
S PRN S ADVP NP VP SU->1
ADVP NP RBR->5
NP NP NNP NNS->1
S INTJ , CC NP EDITED , VP SU->1
VP VBN NP NP PP->9
VP VBD S ADVP->8
SQ LST VBD NP VP .->2
SQ INTJ , VBD NP VP .->2
VP VBN S SBAR->3
VP VBD , `` NP VP->1
S CC NP ADVP VP : SU->1
NP CC NML NNS->1
UCP JJ CC RB->1
VP VBN NP PRT PP->12
S EDITED : NP VP .->1
WHADVP WHADVP RBR->1
ADJP RB JJS PP->1
VP VBN NP PP SBAR->6
WHNP WDT NN .->1
SQ VBD NP RB VP->1
VP VBN NP PP PP PP->3
 WHNP->2
VP VBD PP EDITED PRN NP SBAR->1
NP DT NML NNP '' POS->1
VP VBD S .->1
VP VBN , INTJ , NP PP->1
S NP ADJP , ADVP , SBAR->1
VP VBD NP PP ADVP->11
NP CD , CD->2
NP DT NN RP->1
VP VB ADVP NP NP PP->1
VP VBZ NP , S->4
S INTJ , ADVP NP VP .->2
VP VBZ INTJ PRN S SBAR->1
S PP :->1
NP CD NNS S->1
NML '' JJ NN ''->1
NP DT NNP POS->19
VP VBN CC VBN NP PP , PP->1
NP NP : FRAG->1
S ADVP NP VP SU->6
ADJP JJ SBAR->31
LST LS ->1
S EDITED INTJ NP VP->1
RRC PP NP->1
NAC CC VP->1
NP PRP$ JJ NN NN->5
EDITED CC NP VP :->1
NP DT NN NN NN , ADJP->1
S ADVP , INTJ NP VP .->1
VP VBP PP , ADVP->1
NP PRP$ NNP CD JJ NN->1
SBAR SBAR CC SBAR CC SBAR->1
EDITED CODE SBAR CODE->8
PP IN IN , PRN , S->1
PP IN NN NP->1
NP NP ADJP VP->1
NP PRP$ NX->1
NP '' NP '' CC NP->1
NP NP  CC , SBAR , `` NP '' ->1
NP SBAR : S->1
VP VBN PP ADVP->7
SBAR WHNP IN S->2
VP VBD , S , SBAR->1
NP PRP$ JJ NN->127
NP NP ADVP SU->1
ADJP JJR PP->1
PP TO NNS->1
NP DT NN CC NN->19
FRAG CC EDITED VP SU->1
VP VBD PP PP S->1
NP NNS .->3
ADJP CC ADJP CC ADJP NP->1
QP CD CC CD->7
NP NP NN PP->2
S S : S ''->1
VP VB NP , PP , SQ->1
NP PRP , '' S->1
S CC S , S .->3
S S CC NP CC SBAR->1
NAC CC ADVP NP->1
VP VBD , ADVP , ADVP PP , PRN , PP , SBAR->1
NP NNS->1000
S NP , SBAR , VP .->3
NP DT ADJP NN NN->9
SBARQ CC WHNP SQ->1
NP NNP CD , CD->1
VP VBD ADJP '' S->1
NP DT VBG JJ NN->2
VP VBZ NP ADVP SBAR->2
S NP PRN NP->1
NML  NNP NNP ->1
VP VBG NP , PP->2
SBAR WHADVP S->462
S ADVP , PP , ADVP , NP VP .->1
VP VB NP INTJ PRN->1
NML NML , NML , NML , CC NML->2
VP VB NP S SBAR->2
NP ADJP S->1
S ADJP NP->1
SINV ADVP VBZ NP VP .->1
SINV VBD NP S->1
NP WDT NN->2
VP VB NP PP , PP->3
NP NP PP PP , PP->1
NP NP , NN->1
VP VBN ADVP VP->9
S NP VBP->1
S CONJP S , CC S .->1
NP  RB CD NN NN ->1
VP VB NP SBAR ADVP->1
QP $ CD , $ CD->1
SQ INTJ , VBD NP VP . SU->1
VP VBG ADVP S : NP->1
VP VBZ RB ADJP->14
S '' NP , VP .->1
NP PRP$ '' NNS->1
VP VBZ  ADVP  SBAR->1
VP VBZ PP , PP->2
VP VB NP PRN->4
S SBAR VP->9
NP LST NP PP->4
ADJP JJ SYM JJ->1
NP VBN NN->6
S PP , S , SINV .->1
SQ VBZ NP NP SBAR .->9
VP VBD , `` S->9
VP VBG PRT->11
PRN CODE S SU CODE->1
VP VBN NP NP SBAR->1
VP VBD '' RB ADJP PP->1
S INTJ EDITED EDITED NP VP SU->1
NP=1 DT NN->1
VP VBP RB VP NP PP->1
NP NP , NP , NP CC NP CC NP->1
NP DT NNS S->1
VP VBN , PRN->1
ADJP RB HYPH VBG->1
VP VBZ SBAR->148
PRN S CC S->1
SINV SBAR , ADVP VP NP .->1
WHADVP WRB RB->9
NP NNP NNP NNP NNP NNP->1
NP VBN NML NNS->1
S RB NP VP->1
VP VBZ , SBAR , NP->1
VP VB ADVP ADVP->8
S CC ADVP PP , NP VP . SU->1
LST RB->1
VP VBN NP S ADVP->2
VP VBZ ADVP INTJ ADJP NP->1
SBAR RP IN , INTJ , S->1
VP VBZ INTJ NP->2
SQ VBD NP->3
QP CD HYPH CD->2
NP : NML NNP NNP :->1
NP RB NNP NNP->1
NP RB DT->3
UCP VP CONJP ADJP->1
SQ VBZ NP PP . SU->1
ADJP ADVP JJ PP->2
ADJP $ JJ->1
ADJP JJ HYPH JJ->4
NP RB DT `` JJ '' NN->1
S PP , PP , NP VP .->6
EDITED CODE WDT CODE->1
S ADVP `` NP '' VP , CC->1
VP VB PRN NP->1
VP VBZ CC VBZ SBAR->1
QP RB $ CD CD->6
SINV NP ADVP VP->1
VP VBD ADVP PP->20
NP  NP SBAR ->1
NP NP NNS SBAR->2
S S , CC SQ .->1
VP VBG ADVP SBAR->5
NP DT JJ '' ADJP '' NNP->1
NP : NP CC NP->1
VP VB PP , SBAR , PP->1
S CONJP SINV , CC S .->3
S INTJ , NP VP SU->1
ADVP NN->1
SBAR IN S , :->1
VP VB NP NP , SBAR->2
VP VP CONJP VP->6
VP VBZ RB ADJP , SBAR->1
NP PRP$ JJ , JJ NNS->2
NP NP CC INTJ : PRN : NP->1
PP IN CC IN NP->8
SBAR SBAR CC ADVP SBAR->1
NP NP , NP , PP->1
VP VBP ADVP PP PRN->1
EDITED VP :->1
ADJP ADVP JJ SU->1
VP VBD PP PP->31
NML NML NML->1
VP VBD PP : PRN->1
VP VBD NP PP PP SBAR , PP->1
VP VBD S , PP->1
VP VBD ADVP ADVP , S , SBAR->1
VP VB , S , SBAR->1
VP MD RB ADVP VP->5
VP VBD , PRN , VP->2
NML NNP CC NNP->6
VP VBZ VP->270
SQ LST VBD NP NP .->1
S S : S->7
FRAG NP NP SU->1
SQ INTJ , VBZ NP NP SBAR .->1
VP VBP EDITED NP ADVP->1
NP DT NNS CC NNS->14
S INTJ , CC NP VP->1
EDITED CODE MD CODE->2
SBARQ WHNP SQ . SU->3
PP IN NP NP->2
NP CD NN NN->25
NP DT JJ `` NN NN ''->2
VP VB NP NP PP , SBAR->1
NP JJ , JJ NN->2
SQ VBD NP ADVP->5
NP NML NNS->52
ADJP JJ , RB JJ->1
ADJP JJ .->12
NP NP , `` NP->1
NP SBAR , NP->1
NP PRP$ JJ JJ->2
VP VBP NP , SBAR->6
NML  NNP NN ->1
WHADVP WRB RBR->1
PRN : S :->3
WHNP WHADJP NN->1
NP NP : VP :->2
NP PRP$ NN->710
NP NP : PRN : SBAR->2
S CC EDITED S CC S PP PRN SBAR .->1
NP PRP$ NNP CC NNP JJ NN NNS->1
VP VBN NP ADVP , ADVP->1
ADVP RB , CC RB->1
SINV SINV , SINV PP .->1
S NP NP VP->10
VP VB NP , SBAR , NP->1
VP VBD ADVP PP ADVP->1
S CC PP , NP VP :->1
NP CD DT->6
S NP NP ADVP->1
 S , ADVP NP VP .->1
NP NP PRN :->2
SINV ADJP VP NP .->2
NP NP VP .->1
WHNP WDT NN NN->1
VP VBN NP PP , NP , SBAR->1
VP VB S , SBAR->2
NP NP , NP CC NP->23
ADVP DT NN->1
S SBAR S CC S->1
NP DT VBN CC->1
VP VBZ NP PP ADVP->4
FRAG  ADVP NP SBAR ->1
NP CD JJR NNS->1
VP VBZ S S->2
VP VBN NP '' NP->1
NP UH->1
NP NP QP ->1
NP CONJP NP CC NP->1
QP IN TO CD->1
NP '' DT NN ''->2
SQ NP VP SU->2
VP VBG S ADVP->2
ADJP ADJP : UCP->1
PRN CODE FRAG CODE->2
WHNP WHNP  PP , PP ->1
NP DT JJS JJ NNS->1
S ``  NP  VP . ''->1
SBAR WHNP SQ->2
NP PRP$ CC PRP$ JJ NN->1
VP TO VB->1
VP VBD NP NP->22
SBAR WHNP->7
NP=1 CD->1
S PP S .->1
NP UCP NN NNS->1
NP NP PP ADJP->2
NP `` NN '' CC `` NN '' CC `` JJ->1
VP VB NP PRT->16
S INTJ NP VP .->33
S `` S , CC S .->2
S NP EDITED SBAR->1
WHNP WP$ NNS->3
PRN FRAG->1
NP NP , '' SBAR->2
VP VBD S PP->3
VP VB NP EDITED SBAR->1
NP NP  NP NP ->1
NP DT RB VBN NN->1
VP ADVP VBN NP PRT PP->1
S NP VP CC VP->1
NP QP JJR->1
FRAG VBN->3
S CC NP ADVP , ADVP VP . SU->1
VP VBD NP PRT PP->2
NP DT NML VBG NNS->1
PP ADVP IN ADJP->1
VP VBN NP NP , SBAR->1
NP NP NNS S->1
WHNP RB WDT->1
EDITED CODE RB DT CODE->1
VP VB NP ADVP PP , ADVP->1
PRN , '' SINV ,->1
VP VBG NP PP , S->1
S INTJ SBAR SBAR NP VP .->1
NP ADVP DT->2
NP NP NP NP , NP , CC NP->1
SQ VBD RB NP VP->1
NP JJ JJ , JJR NNS->1
NP NP '' CC NP->1
VP VBP NP PRT->2
VP VB NP S PP->1
FRAG NFP NP NFP PRN->1
SBAR SBAR , UCP->1
NP QP ->52
VP VP , CC , SBAR , VP->1
NML NNP CD->6
NP DT NN NN NN->5
NP NP PP->3361
NP NP , NP  CC NP ->1
S NP , VP . ''->1
VP TO VP->1453
FRAG CC WHNP PP SU->1
VP VBD NP PP , NP , S->1
VP VB PP PRN->2
VP VBG ADVP S->4
VP VB PRT S->2
SBAR IN S CC RB :->1
NP DT NN POS->58
NP SBAR SBAR->1
NP NP '' PP->3
SINV VP VP NP .->3
SQ PP , MD NP RB VP .->1
NP NP EDITED PP SU->1
NP PDT DT ADJP NN->1
NP NP , '' PP->1
PP  IN NP .->1
NP NP NN CC NN->2
S CC : PRN : NP VP SU->2
NP PRP$ CD NNS POS->1
S NP VP . '' .->1
PP ADVP TO NP->4
NP NP QP->1
S S , CC S CC S->1
SQ VBZ NP NP ADVP->1
FRAG CC SBAR , PP RB .->1
QP DT JJ->8
S EDITED CC , PRN , NP VP .->1
SQ SQ , SQ , SQ->1
S S , S .->34
VP VBD EDITED INTJ SBAR->1
VP VBP NP PP SBAR S->1
VP VB PP , PP , PP->1
S S CC ADVP S .->1
NP DT JJ NML NN .->1
NP NP NNP NNP->10
NP JJR JJ NN->2
PP NP->1
SQ NP , MD NP VP .->1
NP NP , S->6
VP VBP EDITED S , SBAR->1
NP JJ NNPS NNPS->2
NP NP , RRC->2
VP VBN ADJP S->1
NP DT NNS NN->4
S PP , NP , VP->1
NP PRP$ NN , NNS->1
NML NN , NN->1
NP NN NML NN->1
NP NNPS CC NNS->1
NP NP , PRN , SBAR->1
NP DT JJR->1
VP VBD PRT PP ADVP->2
NP NP NP , '' PP->1
ADJP RB HYPH JJ->2
NP DT NN NML NN->1
FRAG PP : S .->2
VP VBG SBAR ADVP->2
VP VBZ PP , ADVP , NP->1
VP VBG , PP->2
VP VB S , PP , UCP PP , SBAR , NAC->1
S ADVP , S , S .->2
S ADVP , SBAR , X X .->1
S EDITED INTJ NP ADVP VP SU->1
NP PRP$ JJ JJ NNS->6
NP DT `` NN '' NN->1
NP JJ '' NNS->1
VP VB NP PRT PP , NP->1
UCP PP CC ADVP VP->1
SQ VBZ RB NP VP->1
NP NNS , NN CC NNS->1
NP NP ADVP NP->1
VP VB , `` SQ->1
NP DT JJ CD->4
SBAR WHADVP IN S->1
FRAG  PP :  S .->1
VP VB EDITED S->1
VP VBN NP PP : S->1
VP VBD PP->211
VP VBG PRT NP->20
NP NML NNP NN->1
S S , CC SBARQ : S->1
SQ VBZ NP NP PP SBAR->1
NP DT JJ NNPS CC NNP NNP NN->1
INTJ UH NP->1
NP NNP NN .->1
NP NP PP S , PP->1
EDITED CODE CD CODE->1
NP JJ NNS , NNS CC NNS->1
VP VBP PRT S->3
S NP->19
NP  ADVP , NP ->1
S EDITED SBAR , NP VP .->1
S PP PRN PP , NP VP->1
NP NNS VP->1
S S : CC S .->2
NP S->2
VP VBP NP PP S , NAC->1
VP VBG S S->1
NP DT RB NNS->1
SBAR SBAR SBAR CC->1
VP VBN NP , SBAR->4
FRAG NP , CC FRAG .->1
 SBAR->33
S INTJ PRN NP VP->1
ADJP FW FW->1
VP VBZ EDITED , NP->1
VP VBD NP , SBAR , SBAR->1
 NP->267
WHNP WP RB->3
VP VBD , ADVP , NP->4
VP VBP PP : SBAR->1
S CC S , CC S . SU->1
NP ADVP DT NN NN->1
VP VBD : `` S->4
NP NP  VP->1
VP VBD NP , ADVP , SBAR VP->1
VP VBD ADVP ADVP S->1
INTJ NNP->1
VP NP=3 PP->1
NP NP JJ JJ NN NN->1
VP VBG S PP->1
VP VBP PP SBAR , SBAR->1
VP CC VB CC VB NP->1
NP DT JJ , NML NN->2
S `` NFP NP VP . ''->1
ADVP RB RB , SU->1
VP VB PRT PP ADVP->1
VP VBD ADVP VP , NP->1
QP RB CD->54
NP `` WP DT NN .->1
ADJP RB JJ PP .->1
NP DT NNS->730
VP VBZ PRT PP PP->1
NP DT VBN NML->1
QP DT JJ IN $ CD CD->1
NP DT '' JJ JJ ''->1
NP ADJP , JJ NN NN->1
NP NP NP , NP NP NP NP->1
SQ VBD NP NP PP->1
NP  CD , CD ->5
VP VBP CC VP->2
S VBD NP VP .->1
NP NP , NP , NP , NP->5
NP JJ NN POS->6
NP JJR JJ NNS->1
NP NN RB .->1
VP VP CC VP CC VP PP->1
VP VP : ADVP : NP->1
VP VBZ ADVP S->5
PP IN , PRN , NP->3
VP VBN NP ADVP SBAR->1
ADVP DT RB PP SU->1
NP DT JJ NNS CC NNS->6
S INTJ , EDITED CC S , CC S .->1
S S , CC S , CC S->2
NP NNS CC NNS CC NNS->1
NP DT `` NN->6
NP NNS S->3
ADJP RB RBR JJ->4
NP DT NN NN CC NN->1
NP NP NP NP , NP NP->9
SBAR WHADVP S FRAG->1
S PP , S , NP VP .->1
S CC ADVP , NP VP CC , S .->1
NP DT NML NNP NN->4
VP VB NP UCP->1
NP NNP NNP NNP .->3
VP VBD PP SBAR->18
NP DT NN CD NN NN->1
NP NP NN S->5
S SBAR PRN NP ADVP VP .->1
S INTJ NP , SBAR NP ADVP VP . SU->1
NP NP SQ->2
S NP , NP VP->4
S NP VP . '' SU->3
QP PDT DT CD->1
WHNP WHNP CC WHNP->1
NP ADJP , JJ NNS->1
VP VBG PRT NP PP->3
SQ NP , VBP NP VP .->3
INTJ UH .->130
SINV VBP NP ADJP->1
VP VBZ ADVP S , SBAR->1
S PP , NP XX VP .->1
UCP NN , JJ->1
NP JJ NNP NNP->1
NP NP NP . ''->1
VP VBP : PRN : SBAR->1
PRN CODE S CODE->5
S SBAR SU->1
PP IN , NP->1
VP VBZ NP NP PP->1
S NP VP , CC S .->1
QP CD CC JJR->2
VP VB `` VP->1
VP VB PP SBAR->19
FRAG ADVP PP->1
VP VBP NP->359
VP VB NP INTJ->1
NP NP PRN PP , ADVP->1
S INTJ NP ADVP VP SU->2
VP VP VP , S ADVP->1
VP VBZ NP S->18
NP RB DT ADJP NN->1
VP VBZ NP : PP->1
VP VBD ADVP ADJP->6
UCP ADJP , CC S->1
FRAG CC , PP . ''->1
SINV VBD NP NP->1
NP DT NNP NN VBG NN->1
NP DT JJ CD NN->1
S SBAR , NP VP :->1
NP DT JJR NNP NNP->1
ADJP RBS NN HYPH VBG->1
S S , CC FRAG .->1
VP VBN NP UCP->1
VP VBN NP , NP , SBAR->1
PP IN IN NP->15
NP PRP$ UH NN->1
NML NNPS->2
NP XX XX->1
VP VBP SBAR S->1
NP PRP$ VBN NNS NN->1
SQ CC VBD NP VP .->8
VP VB PP ADVP->16
ADVP DT RB->1
VP  , NP , PRN PP->1
EDITED CODE RP->1
VP VBN NP , S ADVP->2
VP VBD NP PP SBAR->9
VP VB S , ADVP->1
VP ADVP VBG NP PP->1
NP DT NN : PRN : SBAR->1
ADVP ADVP , CC SBAR->1
SQ MD VP NP->1
NML DT NN NN->1
NP `` NP : SQ .->1
NP NP->2
PP JJ IN NP->14
NP PDT DT ADJP NNS->2
FRAG RB NP ,->1
ADJP RB VBN S->1
S CC EDITED , PP , NP VP . SU->1
VP VBD RB NP ADVP : S , S->1
SQ VBZ NP VP .->10
WHNP WHADJP NNS->1
VP VBD NP PP S->3
ADJP RB JJR PP->1
VP VBZ  ADVP  NP->1
QP $ CD CD TO $ CD CD->2
VP VB ADJP S->6
SBAR IN ADJP->2
VP VB RB S->1
VP VP , CC VP , PP->1
NP NN NNP NNP->3
FRAG NP : S .->5
VP VBN S , S->2
S NP , PRN , '' VP . ''->1
SQ SBAR , MD NP VP .->1
FRAG PP , S .->1
NP `` NP , '' SBAR->1
VP VBP PRT NP ADVP SBAR->1
NP ADJP JJ->1
S EDITED , SBAR NP VP . SU->1
S CC , PP , SBAR , NP VP .->1
FRAG WHNP PP .->1
NP VBG NN POS->1
S NP , NP ADVP VP .->1
VP RB VBG NP PP->1
VP VP , RB VP->2
ADJP NNP HYPH VBN->1
S '' SBAR , NP VP .->1
QP # CD CD->2
NP NN SYM RB->1
PP INTJ IN NP->1
NP DT JJ NNS S->1
S PP , S : S .->2
INTJ UH NN SU->2
ADJP RB HYPH VBN->10
SINV PP VBP NP ADVP ADJP->1
SQ CC MD NP INTJ VP .->1
ADJP LST JJ->1
NP PRP->5709
NP NN .->7
S CC , EDITED , NP VP . SU->1
NP DT JJ  NN  JJ NNS->1
NP ADVP NP , NP->1
SINV VP NP PP->1
S CC S , CC S CC S CC S .->1
NP NP , NP , NP , NP , NP , NP , NP , NP , NP , NP , NP , CC NP->1
EDITED CODE VBN VBN CODE->1
ADJP ADJP CC ADJP->15
PP IN NP :->1
VP VBP ADVP , INTJ->1
NP DT JJ NNPS->5
VP VBD S NP NP->1
SBAR WHPP , S->1
NML NN NN->58
NP NP CC NP PP->3
S NP PP PP->2
ADJP ADVP JJ RP PP->1
NP DT NNP NNP NN->2
VP VBZ S PP->2
ADJP RBS HYPH VBN->1
NP NP , NP , CC ADVP NP->2
NP NP , CD->1
VP VB NFP NP->1
VP VBZ ADVP ADJP->7
NP DT JJ HYPH NN->1
S NP , PP , VP . ''->1
SQ VBZ RB NP VP .->1
PP VBG : NP->1
NP DT : NN NN->1
NP NN  CC NP ->1
VP VBP CONJP VP->1
VP VB , NAC->1
NP SBAR CC NP CC NP->1
NP PRP$ JJ NML NNS->2
NP NN HYPH NN->1
NP CD JJR->1
VP VBD NP , ADVP->3
NP CD NN NNP NNP CD->1
SBAR SBAR S->1
S NP , '' CC , PP , VP :->1
S NP INTJ VP ADVP->1
VP VBN , PP , S->1
NP $ QP ->3
VP VBZ PP , '' SBAR->1
S NP NP ADVP VP . SU->1
PP RP SBAR->1
NP NNS POS NN->1
NP NP JJ NNS NNS->1
FRAG NP NP , NP NP->1
NP PRP$ NNS NNS->1
NP JJ CC JJ NNS->1
SQ CC VBZ RB NP VP SU->1
SQ VBD NP VP->38
NP '' NP , '' PRN , SBAR->1
SBAR  IN S ->2
VP VBD NP ADVP->60
S ADVP , NP ADVP VP .->1
NP JJ NML NN .->1
PRN  S ->6
VP VBD NP , PP , S->1
NP DT NN NNS CC NNS NN NN->1
VP VBZ PRT NP->4
FRAG NP , NP->3
PP ADVP PP . SU->1
ADJP JJ  CC JJ ->1
NP IN NN->1
VP VP , VP , CC VP ADVP->1
VP VBN NP : PRN : PP->1
NP PRP$ ADJP NN->11
INTJ UH , UH .->1
VP VBP NP , NP->7
FRAG ADJP , INTJ .->1
PP IN WHNP->1
VP VBD INTJ NP->2
PRN NP->7
WHNP WRB->1
NP NP , NP , ADVP->1
S `` NP VP . ``->1
VP VB NP NP PP PP->1
SQ VBZ NP S->1
VP VBD NP S ADVP->2
S PP , PRN , SBAR , ADVP NP VP .->1
S CC NP EDITED , VP . SU->1
NP DT NN NN CC NNS->2
VP VB NP PRN PP->2
FRAG CC PP , SQ .->1
VP VB ADVP PP PP->1
NP PRP$ NNP NNP->7
VP VBG ADVP->30
NP DT S NN NN->1
NP NNP , NNP , NNP , NNP , NNP , NNP , NNP , NNP , NNP , CC NNP->1
S ADVP NP , PP , VP->1
ADJP ADJP , ADJP CC ADVP ADJP->1
NP NN JJ NNS->2
FRAG CC , S , SBAR->1
NML JJ NNP NNP->1
NP NNP NNP NN NNP NNP->1
ADJP RB VBN->15
SQ SBAR , VBZ RB NP ADVP VP .->1
S NP PP NP VP SU->1
ADVP ADVP SBAR .->2
NP DT JJS->13
NP IN CD NNS->1
VP VBD ADJP->93
NP NP VBG NN S->1
NP NP : : NP : : NP : : NP : : NP->1
NP NP , CONJP->1
NP NP ADVP SBAR->1
NP '' NNP NNP NNP NNP '' . SU->1
VP VB NP PP , NP->1
S EDITED PP EDITED NP VP->1
EDITED CODE WP CODE->1
S PP , NP->2
ADJP NML JJR->3
SBAR S , SBAR , IN S->1
VP VBD ADVP PP , S->1
UCP PP , CC ADVP->3
NP DT JJR NNS->9
VP VBD NP PP , S , PP->1
NP DT WHNP S->1
VP VBG NP EDITED PRN NP->1
NP NP NP , PP->1
NML NN '' CC '' NN->1
VP VBD NP PP , INTJ->2
WHADVP WHADVP WHNP->1
NP DT NN NNP NN->1
S NP VP , SU->16
S PP , NP VP . '' ''->1
VP VBN NP PRT ADVP->1
NP EDITED DT JJ JJ NN->1
S EDITED S , CC S .->2
VP  ADVP->5
NP NP NML->16
S S , EDITED CC S .->1
S CC NP , NP VP .->4
EDITED NP : CC->1
 S->4091
VP VP , VP CC VP->2
FRAG ADVP ADVP .->1
VP VB '' SBAR->1
SBAR RB SBAR CC SBAR->1
VP VBD `` NP '' PRN->1
SBARQ CC WHADVP SQ .->13
ADJP JJ , JJ , CC JJ->5
PP PP ADVP->2
NP NNP NNP CC NNP NNP POS->1
NP NNP NNP NNPS->2
FRAG NP , NP .->11
NP JJ NN SBAR->1
NP CD JJ ADJP NNS->1
VP VBD PP PP ADVP->3
VP VBZ : SBARQ PP->1
NML NNP SYM NNP SYM NNP->1
SBARQ WHADVP .->1
VP VBG->49
NP NP , '' VP->1
VP VBD SBAR PP , NP->1
NP JJ VBG NNS->3
VP VBZ ADJP ADVP->4
VP VBN VP->78
S PP , S CC S PP .->1
NP DT PRP$ NNS->1
UCP `` FRAG '' S .->1
PRN SBARQ->3
NP ADJP NNP NNS->1
NP SBAR , SBAR->1
NP DT JJ  CD  NN->1
QP DT $ CD CD->1
ADVP ADVP RB->4
S PP : PRN : NP VP .->1
NP NN VBG NN->3
NP NNP NNS CC NNS->1
NP DT JJR NN NN->1
S ADVP , SBAR , NP VP .->3
NP DT `` JJ NN->4
NP RB DT ADJP NN NN->1
EDITED NP PP :->1
NP NML NNP NNP NNP NNP NNP NNP NNP->1
VP VBD ADVP PP S->1
VP ADVP VBN NP PP PP->1
S CC : PRN : EDITED NP VP SU->1
S S S .->2
SQ CC VBZ NP NP SBAR .->2
SQ '' VBD NP VP .->1
S CC PRN NP ADVP VP .->1
VP VBD NP SBAR ADVP->2
VP VBG PRT NP INTJ->1
NP DT JJ JJ NNS->17
WHNP WDT NNS->2
VP VBP PRT->5
SQ S , SQ .->3
VP VBN NP , PP->1
VP VBP ADVP VP->56
S SBAR , PP NP VP SU->1
NP JJ HYPH NN->1
S S , NP ADVP VP .->1
NP NN , NN , NN->1
S CC , INTJ , NP VP . SU->1
SBARQ WHADVP FRAG->2
S CC S , SBARQ .->2
NP DT->846
S NP UCP->4
PRN : NP->1
VP VBZ PRT ADVP->2
VP ADVP VBP VP->1
NP NP NNP NNP NNP->4
SBAR WHADVP NP VP->1
VP VBZ NP NP->13
SINV CONJP VBD NP VP->1
S '' NP VP .->4
EDITED ADVP->1
FRAG  NP , PP  ''->1
VP VBG S , SBAR , SBAR , S PP->1
VP VBD , INTJ , NP ADVP->1
VP VBD PP NP S->1
VP NP=2 , PP=3->1
PP ADVP IN S->3
PP RB IN NP->1
ADJP ADJP , UCP->1
NP DT JJ VBG NN->1
S INTJ NP EDITED EDITED EDITED VP SU->1
S S , CC ADVP S .->1
S S , SBARQ->1
NP DT JJ NNP->11
NP JJ NML NNP->1
SQ PP , VBP NP VP . SU->1
UCP NP , CC S .->1
VP CONJP VP , CONJP VP->1
FRAG ADVP->2
SBARQ SBARQ CC SBARQ .->2
EDITED PP :->3
PP IN NP->7478
NP NP , '' S , ''->1
NP NNP CC NNS->1
NP DT VBN->3
VP VB , PRN , SBAR->2
VP VBZ PRT->1
S S : S .->27
PP FW FW NP->1
ADVP IN RB->2
S SBAR NP ADVP VP .->1
VP VBP ADVP ADVP->4
NP NP NNP '' NNP '' NN->1
UCP S CC PP :->1
VP '' VBN '' NP PP PP->1
VP VBN PP PP , S->1
S NP CC VP SU->1
VP VB NP PP , SBAR->2
EDITED CODE PP PP CODE->1
NP NP , `` SBAR->2
NP NNPS NNPS->4
VP VBG NP PRT->2
VP VBG NP `` NP ''->1
S CC NP NP VP SU->3
S INTJ , S : CC S .->1
NP NP PP RRC->1
INTJ UH UH UH SU->2
NP NP JJ NN SBAR->1
ADJP ADJP , PP->1
S '' NP VP->2
EDITED CC SINV :->1
NP DT VBG NN POS->1
VP VBN NP PP PP , PP->1
SBAR IN RB S :->1
NP CD NNP NNP NNS->1
ADJP ADVP VBN->1
NP VBP->2
UCP JJ CC NNP->1
NP NP `` NP->18
SQ VBP '' NP '' NP PP->1
VP VBD NP ADVP , PP->1
NP CD HYPH NNS->1
S SBAR , S , CC S .->4
QP RB DT->4
ADJP NN HYPH VBN->22
NP CD NML NN->1
S ADVP PP NP VP->1
NP DT JJ NNP NNPS->4
SQ CC EDITED VBD NP PP .->1
VP VBN NP '' S->1
NP NP , S , NP->1
INTJ INTJ , INTJ . SU->2
NP NP , NP , NP , ADJP , NP->1
NP NP `` S ''->1
SQ VBD NP NP->11
VP VBP PP PP PP->2
X DT JJR->1
NP NNP CC PRP->3
VP ADVP VBN NP->5
ADJP ADJP , ADJP , ADJP->1
SQ SBAR , VBP NP VP .->2
VP VBN PRT PP  NP ->1
S NP VP , '' S . ''->1
VP VB INTJ SBAR->1
S SQ CC S SU->1
S S CC S . ''->3
S SBAR , S : S .->2
SQ VBP NP ADJP->4
NML NML NN->4
S ADVP , S VP .->1
NP  FW ->2
NP JJ NN NNS->48
SBAR IN SBAR->10
NP NP INTJ SBAR->1
S PP , NP ADVP VP->2
SBAR UCP , IN S->1
RRC ADVP PP->1
VP VB NP '' NP->1
VP VBD EDITED NP->1
S ADVP , S : S .->1
WHNP WP->446
VP VBZ NP , ADVP->1
NP NNP NNP , NP , CC NP->1
S S , CC SBARQ->1
NP NP , PP PP->1
NP CC NNPS CC NNPS->1
FRAG NP SBAR .->1
NP NP , CONJP NP->6
PRN  NP , NP ->5
S ADVP , INTJ , NP VP . SU->1
VP VBP SBAR SBAR->1
ADJP ADJP `` ADJP ''->1
VP VBD ADJP PP PP->1
SBAR S CC RB->1
VP VBN ADVP PP->2
VP VBZ INTJ NP ADVP->1
SQ CC VBD NP SBAR .->1
NP NN NN NNS NNS->1
NP NNP NML NNP->5
NP ADJP PP S->1
S NP VP . SU->52
NP NN , NN , NN , NN , NN , NN , NN , NN , NN , NN , CC NN->1
ADJP RB RB HYPH NN HYPH JJ->1
PP IN INTJ NP->6
ADJP JJ CC JJ PP->2
NML NML NML NN->1
VP VB NP NP->54
NP NP HYPH NP->2
NP `` NP , '' PP->1
FRAG NP SBARQ .->1
S ADVP , S , NP VP . ''->1
VP VBZ S PP , S->1
NP NN . NNP->1
S CC EDITED NP VP SU->5
EDITED SBARQ :->1
S INTJ CC NP VP .->2
S `` NP NP VP .->1
QP JJR IN PDT->1
PP=4 TO NP->1
S NP , PP VP->1
S CC NP VP .->133
VP VBD PP NP NP->2
NP DT VBN NNS->5
VP VP CC DT VP->1
PRN CODE INTJ CODE->9
SQ SBAR , VBD NP VP , SU->1
NX NN NNS->1
NP NNS , NNS CC NNS->2
SQ NP , VBZ NP NP SBAR .->1
NP NP NN CC NN NN NN->1
NP NP CC PRN NP CC NP->1
VP ADVP ADVP VBN NP PP->1
NP DT ADJP NP->1
FRAG INTJ PP .->1
NP NP : PRN : ADJP->1
VP VP , CC VP ADVP->1
S EDITED S->3
NP NP '' NML->1
VP TO RB VP->1
UCP NP CC ADVP->2
S PP , '' NP '' VP .->1
VP VBP NP : PP->1
S CC NP ADVP ADVP VP .->1
S SBAR NP VP . SU->2
S INTJ , CC SBAR PP NP VP , SU->1
S CC PP , '' NP VP .->1
NP DT QP ->1
NP DT NML NNP NN NN NN->1
VP VBD NP SBAR->66
VP VBZ PRT SBAR->1
SQ INTJ VBZ RB NP ADJP SBAR SU->1
S '' PP , NP VP , ''->1
VP VP : VP : VP : VP : CC VP->1
VP VBZ CC VBZ NP->4
NP NNP NNP NNPS NNP->1
SBARQ NP , WHNP SQ .->1
NP DT JJ NNP NML NN->1
NP NP : '' S , '' '' S , '' CC '' S->1
S SINV , CC S . ''->1
VP VBD ADJP SBAR->8
S SBAR ADVP NP VP SU->1
QP JJ CD->2
NP ADVP , PP , NP->1
S ADVP , INTJ , NP VP .->1
VP ADVP VBD PRT NP->1
PP RB IN ADJP->1
NP `` NP PP '' SBAR->1
S NP INTJ VP .->5
NP NP SBAR :->1
VP VBZ RB ADJP SBAR , SBAR->1
SINV PP VP NP , S .->1
NP PRP$ JJ NNS->49
S INTJ EDITED INTJ EDITED NP VP .->1
S S , '' CC S .->5
VP VBD PP PP PP->5
NP NP CC ADVP->1
S `` NP '' VP .->1
S S CC S->51
VP VB NP NP INTJ , NP->1
NP JJS NNPS->1
PRN  SBAR ->1
NP WP DT NN->1
S PRN NP EDITED : PRN : ADVP VP .->1
VP ADVP VBG ADVP->1
VP VBN NP `` NP '' : S->1
VP VBZ , '' INTJ->1
VP VBZ '' VP->2
S ADVP NP VP .->30
S NP EDITED , VP->1
NP DT NNP NNP NML NNP->1
NP NP NN CC JJ NN NN->1
NP NP NP VP->1
NP JJ NNP NNS->2
VP VBN NP NP SBAR S->1
S PP NP VP . ''->4
S SBAR , NP VP . ''->6
VP TO->2
VP VBP , NP->1
NP JJS NNS->4
VP VBD RB PP VP->1
VP VBN NP ADVP ADVP->3
NP DT ADJP `` NNP NNP NNP->1
S  S , S . ->1
S CC NP VP , SU->27
VP RB VBG NP->1
VP VBP->184
SBAR INTJ , IN , S .->1
SBAR SINV->5
S CC SBAR NP VP . '' SU->1
VP VBD SBAR->263
S SBAR NP VP SU->4
PP IN INTJ PRN NP->1
X NP SBAR->1
VP VB NP NP .->1
VP ADVP ADJP , PP->1
NP NP , NP , NP , NP , NP , NP , CC NP->1
ADJP RBS JJ->21
NP NP POS NN->1
NML NML , NML , NML , NML , CC NML->1
NP JJ VBN NML NNS->1
ADJP ADJP , CC ADVP ADJP->1
NP DT NN SBAR->41
ADJP ADJP CC ADJP CC ADJP->1
VP VBN S , PP->1
VP  , PP->2
S INTJ CC NP ADVP VP SU->1
VP VBD , NP->1
VP VBD NP PP PP SBAR->1
VP VBZ , ADVP , NP->1
VP VB NP PP , S->1
NML NN HYPH CC HYPH NN->1
VP MD ADVP RB VP->1
QP RB NN->2
NP NP , NP , NP CC NP->5
NP ADVP DT JJ NN->3
VP VB NP PRT PP->3
NP RB->14
NP NNP NNP NN->1
NP JJ NN NN NN .->1
NP NP INTJ NP->1
VP VBD ADVP ADVP->4
NP NP , PP , PP->2
VP VB PRT NP PP->7
NP NP PRN SBARQ->1
VP NP PP->1
NP DT NML NML NN->2
FRAG CC NP .->2
NP CD TO CD->2
VP VBG CC VBG NP->5
NP NP  CC ADVP NP ->1
UCP PP , CC SBAR->1
FRAG CC S SU->1
S S CC S , SBAR->1
QP DT NNS->1
QP DT JJ CD->2
NP JJ NNS , NNS->1
VP VBG PRT ADVP->2
VP VBG ADVP VP->3
NP DT NNPS NN NNS->1
PP IN UCP->2
FRAG NP : `` S . ''->1
S SBAR , PRN , NP VP->1
NP DT NN PRN->1
S  S . ->2
VP VP , VP , VP , CC ADVP->1
VP VP : CC ADVP VP :->1
NP LST DT NN->1
S PP , `` NP VP->1
S ADVP , NP , NP VP .->2
S ADVP , NP VP . ''->1
VP VBD ADVP , VP->1
VP VBD ADVP PP , PP->1
NP DT JJ NML->5
NP DT VBN NN->32
SQ VBZ NP NP .->6
ADJP RBR JJ->35
EDITED CODE NN CODE->3
S CC S , S , S .->1
ADJP JJ , IN JJ->2
NP NP JJR NNS->1
SBARQ SBAR , WHADVP SQ .->1
S CC S , S . ''->1
NP NP , CC ADVP NP->1
VP VBZ RB ADJP SBAR->5
NP DT NNS SBAR->1
NML JJ HYPH NN->8
SBAR SBAR , NP->1
S NP NP , S->1
UCP JJ , NN CC JJ->1
VP VBZ NP : SBAR :->1
VP VBZ PP , SBARQ->1
VP VBZ ADJP->157
QP RB DT NN->1
VP VB S->320
S NP VP CC VP ADVP->1
QP CD CD->19
VP VBG NP , S->1
SQ CC NP , VB NP VP .->1
VP VBN NP NP PP ADVP->1
VP VBN CC VBN NP SBAR->1
S CC SBAR , NP ADVP VP .->2
S ADVP EDITED NP VP->1
S PP , NP : INTJ NP VP .->1
NP PRP$ JJS NN->7
VP VBZ ADJP : PRN : SBAR->2
S INTJ CC NP VP SU->2
WHADVP WDT->8
VP VBD ADVP ADVP ADVP S->1
NP DT NML NNP NNP->13
VP VBG PRT NP S->1
S PP , PP , NP ADVP VP .->1
NP NP , ADJP->10
VP VBN NP PP PP , NAC->1
VP  , PP , PP->1
NP NP : PP :->2
VP VBG NP UCP->2
S ADVP , SBAR->1
VP VBP NP S->22
QP RB DT CD->1
NP RB NML->1
NP S , S , NP , NP->1
PP PP , IN S->1
VP VP CC VP NP->6
VP VB CC VB CC VB NP->1
NP FW->20
S `` S , S . ''->1
VP NP=1 PP->3
VP VBG NP S ADVP->1
UCP S CC NP CC ADVP S->1
VP VBN `` ADJP->1
NP DT NNP NNP NNP NNP->8
VP ADVP VBN NP PP , PP->1
ADVP RBS RB->10
NP RB DT NNS->5
NP VBZ->4
NP DT JJ , VBN NN NNS->1
ADJP ADJP ADVP->1
VP VBP PP ADVP ADVP->1
NP QP DT NN->1
SQ CC , INTJ , MD RB NP VP .->1
NP CD NNP NNS->1
VP MD->6
VP VBD ADVP ADJP SBAR->1
NP ADJP NN NN->5
NP ADJP NN NN NN->1
NP RB CD->3
VP VP , VP , VP->3
ADJP JJR CC JJR->1
S ADVP , NP , VP .->2
VP VB ADVP : PRN : NP : PRN : PP->1
NP JJ NNP :->1
NP QP NNS .->1
VP VBZ PP , SBAR->1
NP NNP NNS->28
WHNP DT->6
SQ NP , ADVP , MD NP VP .->1
S S , INTJ , S .->1
S S CC SU->2
FRAG PP->1
VP VBD ADVP SBAR , S->1
NP DT ADJP JJ NN NN->1
QP NNS IN NNS->4
VP VP CC ADVP PRN VP->1
VP VBG SBAR PP->1
VP VB PP , S , PP EDITED S->1
NP PDT DT NNS CC NNS->1
SQ EDITED CC VBP NP VP SU->1
ADJP RB JJ PP->46
NP NP CC NP NML->1
SBAR PP IN S->2
S INTJ CC ADVP INTJ SU->1
NP QP PRP$ NN NN->1
S ADVP PP , NP INTJ , VP , SU->1
NP NP , NP , NP->18
WHPP IN WHNP->55
NML VBN NNS->1
INTJ UH NNP->1
PRN SQ->1
ADVP RB IN DT JJ->1
NP NP , '' RRC->1
UCP VP CC ADJP CC VP->1
VP VB NP ADVP , WHNP->1
VP TO NFP VP->1
VP VBG NP PP NP->1
S S , S->16
VP VBZ RB PP ADVP->1
NP PRP$ NN , NN CC NN->1
NP PRP$ EDITED NN->1
VP VBZ ADVP PP->6
NP PRP$ VBG->1
S EDITED S , NP VP->1
S `` NP '' VP->3
FRAG PP , INTJ , PRN , S .->1
NP `` NNP '' NNP->3
NP NP PRP->1
VP VBN ADJP->10
NP DT JJ , JJ NN->9
S S : PRN : S->1
QP RB DT NN JJR->1
VP VP CC , VP->1
VP VBD PRT NP SBAR->1
NP  SBAR->1
NP PDT DT JJ JJ NN->1
NP RB NN->3
VP VB NP , SQ->1
VP VBN NP PP , PP->1
ADJP ADJP CC ADJP PP->1
VP VB NP PP : NAC->1
ADJP JJ CC , ADVP , JJ->1
S NP CODE VP->1
NX NP->1
ADJP JJ , JJ CC JJ->2
NML NML `` NML ''->2
VP VP CC VP SBAR->2
WHADVP WRB RB PP->1
FRAG INTJ , NP , PRN .->1
WHNP WDT DT NN .->1
S '' S VP .->1
S SBAR , VP .->1
S CC , NP ADVP ADVP VP SU->1
VP VBP RB ADJP->26
S INTJ NP ADVP VP .->2
NP EDITED , DT NN->1
S INTJ EDITED NP VP .->1
VP VB , PRN , NP->1
S S , SQ .->1
NP CD NN NNS->5
SQ PP , VBD NP NP .->1
S CC SBAR , NP , VP .->1
NP NP  CONJP NP ->1
PP CC IN NP->1
VP VB NP SBAR SBAR->3
UCP S CC PP->2
SQ INTJ , VBD NP ADVP VP .->2
NP NP ADVP VP->1
PRN  FW ->1
VP VB INTJ->1
VP VB , SBAR , SBAR->1
VP VBD NP PP , '' SBAR->1
CONJP VB RB->2
VP VB NP NP ADVP->1
EDITED CODE WRB CODE->1
NP DT VBN NNP->3
NP NP PP  NP ->2
VP VB ADJP SBAR , PP->1
S NP '' NP->3
ADVP RB RB .->17
NP DT JJR JJ NN->2
VP VBZ NP PP , SBAR->1
NP PRP : CC NNP :->1
NP PRP$ NN POS->11
VP VBD PRT NP->12
NP PRP$ '' NN NN->1
NP DT NNP NNP NNP NNP NNP->1
NP DT JJ NNP NNP NNP NNP->1
NP NP NFP PP->1
UCP S CC S->1
EDITED CODE PRP$ CODE->3
NP  NN CD ->7
NP NNS CD FW FW->1
FRAG INTJ WHADJP SU->3
VP VP CC VP ADVP->5
NP NP : SBAR :->4
UCP PP CC ADVP NP->1
S PP , PRN , NP VP .->2
NP NP SBAR->1115
S PP NP=2->1
VP VBD S , S->5
NP DT NN  ADJP  NNS->1
NP NP , CC NP->43
VP VBP ADVP ADJP->7
NP DT JJR NN->19
SBAR SBAR , '' CC SBAR->1
S EDITED SBAR , NP VP->1
NP NNP NN NN->2
VP VBD PRT VP->1
S CC , EDITED , ADVP , NP VP . SU->1
VP VBZ , PRN , ADJP SBAR->1
QP JJ NNS->1
S `` S , NP VP . ''->1
NP PRP$ JJ NN CC NN->1
VP VBZ , ADVP , `` SBAR ADVP->1
S CC S .->1
NML RB NNP->1
NP NP NAC : PP->1
NP PRP$ NML NN->11
NP NN NN CD->5
VP VBG NP PP S->3
VP VBZ CODE ADJP->1
S NP : PRN : VP->1
PP PP : PP->2
ADVP RB HYPH PP->1
S NP , SBAR , VP->4
NP NNP  FW ->1
S INTJ NP NP VP->1
S NP ADVP  PP  VP->1
VP TO '' VP->1
S NP VP , S->1
S INTJ , NP VP . SU->6
S `` S , '' S .->1
VP VB NP UCP ADVP->1
S NP VP , S .->1
VP VBZ , SBAR->1
S CC ADVP , SBAR , NP ADVP VP .->1
NP NP , `` S '' PRN->1
NP JJ NN NN NNP NNP->1
S '' NP '' VP .->4
NP PDT DT JJ ADJP NNS->1
FRAG ADJP PRN->1
S CC SBAR : PRN : NP VP .->1
VP VBD , '' SQ->1
NAC CC SQ , SBARQ->1
NP PRP$ JJ NML NN->1
NP JJ NN .->6
S  NP , PP , NP VP . ->1
VP VBD , PP , NP->4
NP DT VBG->2
VP VBN PRT PP->3
VP VBN NP PP , S->4
S CC NP VP . '' SU->4
PP RB IN `` NP->1
S NP , INTJ , VP->1
S NP VP , PRN PRN->1
S NP VP .->1486
NP DT NP->1
VP VBD PP PP  PP ->1
S PP , NP ADVP VP .->8
WHADVP WRB->446
ADJP JJ , ADVP , PP->1
NP  FW FW : NP , NP ->1
NP DT JJ NML NNP NNP->1
NP DT QP NNS->2
SBAR IN IN , S->2
VP VBD SBAR , SBAR->1
ADJP RBS JJ PP->1
NP NP , NP , SBAR->1
NP DT VBG NN S->1
SBARQ INTJ WHNP SQ SU->2
NP JJ NNP .->7
INTJ UH SU->79
VP VBD NP PRT PP PP->2
S INTJ , CC ADVP SBAR VP .->1
SBARQ PRN WHNP SQ .->1
SQ VBP NP VP . SU->5
S S ADVP VP->1
NP NP ADJP JJ NN->2
S S , SBARQ .->1
ADJP ADJP , CC ADJP->1
NP DT ADJP NNP NNP->1
QP DT JJR IN CD->1
NP NP : NP : CC NP->1
VP VBD S , '' PP->1
NP DT JJ , ADJP NN->3
NP DT NNPS POS->1
S CC PP , S , CC S .->2
PP IN , S->2
PP CC PP , CC PP .->1
S CC ADVP , NP VP .->4
VP VBZ RB ADVP ADVP VP  NP->1
FRAG `` `` ADJP , '' S . ''->1
PP ADVP ADVP IN NP .->1
SQ INTJ , NP VP .->1
S CC ADVP SBAR VP SU->1
VP VBP SBAR : PP->1
S EDITED EDITED CC NP ADVP VP SU->1
NP NNPS NNP POS->1
ADVP RB SU->11
NP QP JJ NN NN->1
VP VP CC VP PP , ADVP , S->1
S NP PRN EDITED VP->1
NML NNS->11
S CC S VP .->1
SINV ADVP VP NP->2
NML NML , NML , NML->1
SINV VP NP->6
NP NP : ADJP->1
VP VBG EDITED S->1
VP VBD ADVP VP->73
NP CC NNS CC NN->1
VP VBN ADJP SBAR->2
S EDITED , NP VP->3
S '' NP VP . ''->2
PP PP , PP , CC PP->1
S INTJ , EDITED , NP ADVP VP , SU->1
NML NNS , NN , CC NNS->1
S CC S , CC S . ''->1
NP DT NNP CC NNP NNP NNP NNP->1
NP DT '' NNS ''->1
SBAR WHPP S->47
VP MD , PRN , VP->1
ADJP RBS JJ , JJ CC JJ->2
SQ VBP NP ADVP VP ADVP->1
S ADVP , S , CC S .->6
S S : CC S->1
S NP , NP->1
NP NN NN NNS->13
NP NNP CC NNP->40
SBAR WHADJP S->3
VP VBZ , PP , NP->1
VP JJ NP->1
SQ ADVP , VBD NP VP :->1
ADVP RB NP PP->1
NP DT `` NML '' NN->2
VP VB NP , PP PP->1
NP DT '' VBG NN '' SBAR->1
S CC PP , NP VP . SU->1
S INTJ NP VP . SU->1
S CC S CC S .->4
S CC INTJ NP VP SU->5
VP MD DT '' ADVP '' VP , SBAR->1
FRAG PRN , CC PP .->1
S NP VP ''->1
VP VBP NP PP SBAR->1
NP NNP NX->1
SBARQ WP IN '' NP '' .->1
NP NP NP NP->4
NP DT `` JJ JJ NN NN->1
ADJP VBG CC VBG->1
VP VBD NP , PRN , PP->1
VP VP VP VP VP VP->1
WHNP WHNP SBAR->1
NP NNPS CC NNPS->11
VP VB ADJP SBAR , SBAR->1
VP VP , VP , NP->1
NP NP , UCP ,->1
VP VB SBARQ->1
NP NP CC EDITED INTJ NP->1
NP NP , ADVP , SBAR->1
NP PP NNS->1
VP VB ADJP PP->5
S S , S , CC S ADVP->1
ADVP ADVP NAC->1
NP NML NN NN->5
VP VBN NP , ADVP , PRN , SBAR->1
NP NP , PRN->1
UCP JJ CC NN->3
VP ADJP PP->1
EDITED SQ->1
NP CD .->1
S CC , NP VP . SU->1
S NP VP ADVP->2
NML NN : NN : NN->1
S CC NP NP VP . SU->1
NP NP , NP , NP , NP , NP , NP , NP , NP , NP , NP , CC NP->1
ADJP RB JJR->28
FRAG ADVP INTJ SU->1
SBAR IN SINV->6
ADVP ADVP PP->23
NP JJ , JJ JJ NNS->1
VP VBD NP PRT NP->2
S S CC S SBAR->1
SQ CC PP , VBZ NP NP SBAR .->1
NP NP , NP , NP , NP , NP , CC NP->2
SQ EDITED EDITED VBD NP RB VP SU->1
VP VBZ S->96
S S NP VP .->8
SQ VBP NP ADJP .->5
VP VBZ , SQ->2
NP NNP NNP CC NNP->5
NP NNP CC NNP CD->1
NP DT ADJP NN->116
S CC INTJ SU->1
VP VBP CC VB PP PP PP->1
FRAG ADVP , SBAR->1
NP DT VBN NN NN->6
SBAR SBAR , CC SBAR->5
NP PRP$ NNP CC NNP NN->1
VP VB CC VB ADVP ADVP->1
NP DT VBG NML->1
SQ INTJ VBP NP VP SU->1
NP NP CC EDITED RB PRN NP->1
NP NP SBAR NP->1
S S NP VP . ''->2
VP VBD PRT S->4
S PP : PRN : EDITED NP ADVP VP .->1
QP RB UH CD->1
NP PP NP->3
NP NP CONJP NP->10
S PRN , NP VP .->3
VP VB NP ADVP PP ADVP->1
ADVP RB PP->97
ADJP JJ , CC JJ->1
NML NN HYPH NN->12
VP VBZ CC VBZ NP PP->1
VP VB VP->208
VP VBP NP NP NP->1
NML DT JJ NN->3
PP VBN PP->8
NP PRP$ NNS .->1
ADJP NNS->1
VP VBP ADVP : ADVP->2
NP NP PRN , NP ,->1
SINV VB NP SBAR->1
NP NP ADJP NN NNS->1
PP TO HYPH NP->3
S PP NP VP . SU->3
S NP , NP :->1
VP VBP PRT PP->8
NP CD JJ NN NNS->1
VP VBN NP->329
SQ VBZ NP ADJP .->25
VP VB NP DT S->1
NP IN->11
S S , CC , S .->7
VP VB NP , '' PP->1
NP DT HYPH NN->1
S PP , S , CC S .->10
NP NP , VP , '' S->1
NP $ CD  QP->2
NP VP NP->1
S S , EDITED CC S->1
SINV ADVP VBD NP VP->1
NP NNP , NNP , CC NNP->5
NP NP NNP NN->2
S PP , ADVP , NP VP->2
VP TO ADVP VP->13
VP VB NP RB PP->1
S '' NP VP , ''->8
NP RB PRP$ JJ JJ NN->1
VP VB NP EDITED SBARQ->1
NP NP : `` S . ''->1
VP VB : PP PP->1
EDITED CODE VB CODE->3
NP NNS CC NNS->49
VP VBN NP PP PP SBAR->2
VP VBD PP , SQ->1
VP VBG SBAR->51
ADJP JJ , JJ , JJ CC JJ->1
VP VB NP ADVP , NP->1
VP VP CC VP PP->7
ADJP JJ CC JJ->85
EDITED SBAR :->11
S INTJ INTJ NP VP SU->3
NP `` NP  ADJP  NP->1
NP NP  ADJP ->1
NP CD JJ NN->5
VP VP CC VP , PP->1
VP VB CC VB NP->7
NP NNP NNPS POS->1
NP RB NP CC : PRN : NP->1
VP VP , ADVP VP->3
S EDITED SBAR ADVP NP VP->1
NP NP : '' SBAR . ''->1
VP VBZ ADVP NP ADVP->1
ADJP $ JJ ->3
NP CC NP CC NP->11
S NP `` VP->5
ADJP RB : VBN->1
VP VP : CC VP : NP->2
NP NP PP , NP->2
VP VBZ PP ADVP->8
S S , S , CC S . ''->1
QP CD , CD->1
NML NN CC NN->15
SBAR SBAR , CONJP `` WHADVP->1
NP NN NNP->1
NP NNP , NNP CC NNP POS->1
ADJP RB JJ SBAR->5
VP VB NP SBAR PRN->1
VP VBZ : PRN : VP->1
VP VBP NP PP , PP->1
VP VB NP NP , S->1
PRN CODE PP CODE->1
EDITED CC SBAR :->1
VP VB ADVP NP S->1
ADJP NNP HYPH VBG->1
NP PRP$ JJ , ADJP NNS->1
PRN  NP ->11
SQ VBZ NP ADVP->2
NP NP , UCP->3
SBAR IN :->1
SQ MD NP , PP , VP->1
FRAG RB NP .->1
PP PP , PP , PP , PP , CC PP->1
VP VBD NP ADVP , SBAR->1
QP RB RB CD->1
NP VB NNS->1
VP VP CC INTJ PRN VP->1
NP NP : S->11
SQ VBD NP , VP->1
VP VB SBAR  SBAR ->1
ADJP QP ->6
S EDITED EDITED CC S .->1
NML NP PP->1
S CC NP , INTJ , SU->1
NP NNP NNP . NNP->1
NP NNP NN NNP->1
NP  CD  CD->3
NP ADJP VBN NN->1
S ADVP , SBAR , SBAR VP .->1
S CC NP ADVP NP VP SU->1
VP VBZ ADJP , SBAR->3
NP PRP$ NNS POS->5
SQ VBP NP VP , NP->1
NP DT JJ NML NML NNP NNP->1
VP ADVP VBN NP ADVP PP->1
VP VB : SBARQ->1
NP DT ADJP JJ JJ NN->1
S INTJ , NP ADVP VP .->1
PRN  SQ ->1
VP VP , CC ADVP VP , ADJP->1
NML NML NNS->1
S ADVP , ADVP , NP VP .->2
INTJ UH UH UH->1
VP VBD NP PRT PP , NP->1
VP VBP RB ADJP PP->1
SQ INTJ , VBD NP NP .->1
NAC RB NP->2
VP VBD , ADVP->2
NP NP SBAR SBAR->1
QP JJR IN CD HYPH NNS IN DT CD->1
S CC SBAR , NP VP . ''->1
ADJP JJ VP->1
EDITED CODE NP VP CODE->1
FRAG PP ADVP->1
SBAR SBAR , SBAR , CC ADVP->1
NP PRP$ ADJP NNP NNP->1
VP VBD ADJP PP ADVP->1
S S PRN SQ->1
VP VB ADVP->94
QP $ CD CD->43
NP DT PRN NN->1
VP VB PRT NP , SBAR->1
S NP , NP , PP , VP .->1
VP VBD , SBAR , ADVP , VP->1
UCP JJ CC NN NN->1
VP VBD VP->580
S NP , S : S .->1
S NP VP PP SU->1
S S PRN EDITED INTJ NP VP SU->1
PP IN NFP `` S->1
S NP , VP->41
NP NNP->1344
NP NML NNP NNP->29
S NP S->5
S NP , SBAR , NP VP .->3
NP NP JJ NNP NN->1
SQ VBP NP VP SU->4
NML JJ NNS CC NNS->1
SINV S VP .->1
NP NP PP NAC->1
ADJP ADVP JJ->11
NP UCP JJ NNS->1
VP VP , '' CC VP->1
NP DT JJ `` NNP '' NN->1
S INTJ S VP SU->1
S NP , ADVP VP .->2
VP VB PRT ADVP->5
S CC EDITED NP EDITED VP SU->1
VP VBG NP->408
S CC EDITED , INTJ , NP VP , SU->1
VP VBD PRT ADVP->5
VP VBZ ADJP ADVP PRN ADVP->1
NP NP NN SBAR->2
PP PP CC PP->30
VP VBP RB ADVP->2
VP VBZ ADVP NP PP , NAC->1
ADJP NN VBG->1
VP VBP NP NP PP->2
NML NNP->20
NP RB NP PP->1
NP DT VBG NNS->4
S INTJ , ADVP NP VP SU->2
NP NP CC NP CC NP->7
S PP NP ADVP VP->1
NP NP CC , PRN , NP->1
SQ CC VBP RB NP ADJP .->1
NP JJ->65
NP DT NNP NNPS NNP NNS->1
S CC SINV CC , S .->1
NP NNS , NN , CC NN->1
NP NN CD->80
VP RB VBN NP PP->2
FRAG NP NP  NP  .->3
VP VBP PP , SBAR->1
NP NNP NNP , NN->1
ADVP RBR RB->7
NP PRP CC NNS->1
VP  VBN NP PP->1
NP DT  JJ  NNS->1
VP VBD SBAR ADVP PP->1
S PRN EDITED NP VP .->1
VP VB NP NP S->3
NP PRP$ JJ NNS NN->1
VP VBD ADVP ADVP PP->1
VP RB VP->1
VP VBZ NP , PP , S , NAC->1
PP TO `` NP->1
NP DT JJ CD NNS->18
VP JJ PP PP->1
NP  NP , .->1
SQ INTJ , VBP NP ADVP VP .->1
VP VBP NP , ADVP->2
NP CD VBG NN NNS->1
NML NN CD CC CD->1
S CC PP , ADVP , S CC S .->1
VP=2 VBN NP->1
QP CD NN TO CD NN->1
VP VBD UCP PP->1
VP=3 VBN CC VBN NP SBAR->1
NP NN IN NN->1
NP DT JJ NNP NN->8
SQ CC S , SQ .->3
VP VBP NP : S->1
FRAG INTJ , VBN .->1
S SBAR EDITED NP VP->1
NP DT CD '' NNP NNP NNPS->1
NP  JJ  NNS CC NNS->1
VP VB NP SBAR S->1
SQ VBP NP ADVP VP->1
QP RB DT JJ->2
WHNP WHNP PP->17
NP RB PRP->3
EDITED JJ->1
S NP VBZ ADVP VP .->1
NP ADJP `` NN NNS->1
S EDITED PRN , EDITED NP VP .->1
NP DT JJ NNP NNP NNP->1
VP RB TO VP->1
S NP INTJ VP->1
FRAG `` ADVP PP PP PP .->1
NP NP  VP : NP ->1
NP JJ UCP NNS->1
RRC ADJP PP->1
NP `` NNP NNP ''->1
NP NN NN->122
SBAR RB IN S->1
VP VB NP ADVP SBAR->3
NP NP S->89
NP VBN NN NN->2
NP VBN NN NNS->2
NP DT JJ NN .->1
SBAR SINV .->1
VP VBZ , `` SQ ADVP->1
SBARQ WHADVP SQ SU->1
SQ VB RB NP VP SU->1
S S S . ''->1
NP JJ NN S->1
S S , CC S , CC S .->1
FRAG CC SBARQ .->1
PRN CODE NP SU CODE->1
NP NP CC INTJ NP->1
VP VBN PRT PP PP->1
VP VBD PP PRN SBAR->1
VP VB EDITED PP ADVP->1
S PP NP , S , VP .->1
VP VBN `` VBN NP '' PP->1
VP VB NP NP PRN->1
SQ VBZ NP ADJP , NP->1
INTJ UH , SU->1
S CC ADVP SBAR NP VP->1
VP VBZ PRT S S->1
VP VB NP : PP->1
VP VB NP PP->281
NP CD NNS .->1
NP  NP , NP , NP ->1
NP NP CC NP ADVP->2
NP JJ , JJ NNS->4
ADJP RB PP->1
S CC , NP VP .->2
VP VBP PRT NP PP->2
FRAG INTJ , ADVP .->2
NP NNP CD->110
EDITED CODE VBN CODE->1
S CC PP SBAR EDITED NP VP .->1
NP CD HYPH CD->3
EDITED CC VP :->1
VP VB NP PP PP->23
NML VBG NNS->1
NML CD HYPH NN->23
NP CD JJ NNP->1
NP PRP$ JJ NN NN NNS->1
VP VBZ RB ADJP S->1
S NP , S NFP VP->1
VP CC VBN NP PP->1
NP DT VBN JJ NN->2
PP IN S->301
PP IN `` S->3
LST  LS ->8
PRN  ADVP ->2
S CC NP VP , '' S . '' SU->1
NP ADJP JJ NNS->6
FRAG ADVP ADJP->1
S CC SBAR , S , CC S .->1
FRAG NP , NP , SBAR , S .->1
NP NP NNP NN NN->2
S CC , EDITED NP VP .->1
VP VBZ NP S PP SBAR->1
VP VBG PRT '' PP->1
PP NN SYM IN NP->1
RRC ADVP ADJP->1
WHNP WP DT NN->1
NP DT CD NNP NN NN->1
VP VBP ADVP->26
VP VP CC ADVP ADVP VP->1
NP NP PP POS->3
NX NN->2
QP NNS JJR->1
PP IN NP , PP->1
VP VB `` S->1
INTJ VB->9
NP QP JJ NN->2
VP VP CC VP , S->1
WHNP WDT ADJP NN NNS->1
QP ADVP INTJ CD->1
PP IN `` ADJP->1
QP CD CD CC CD CD->1
VP VBP NP ADVP PP->6
PP CC NP->1
NP DT PRP$ NN->1
ADJP RB , RB JJ->4
NP NP : ADJP :->1
VP CC VP CC NP->1
S S , CC S .->169
NP JJ NML , NML , CC NML->1
NP NP , NP S->1
VP VBP SBAR ADVP->2
VP VBD NP PP PP , S->2
VP VBZ ADVP ADVP ADVP->1
NML NML CC NML->35
NP WHNP->1
NP DT UH->1
S `` NP VP . ''->5
S CC PRN NP VP SU->2
FRAG NP  NP ->2
VP VB ADVP NP , SBAR->1
VP VBD PRT PP PP PRN->1
S `` PP , NP VP .->1
S SBAR : NP VP . ''->1
NP NP , VP , S->1
FRAG ADVP VP . SU->1
NP JJ NN NN NNP NNP NNP->1
FRAG ADJP SBAR .->1
S PP , INTJ , NP VP .->2
S NP `` PP->1
VP TO NP->1
FRAG INTJ , NP . SU->2
VP VB CC VB NP PP->2
PRN : SBAR :->1
NP PDT DT JJ NN->7
NP NP , ADJP , ADJP , ADJP->1
VP VBD ADVP INTJ NP PP->1
VP VBZ , `` SQ->1
VP VB EDITED SBAR->1
S CC S , NP VP .->3
S CC PP NP VP . SU->2
VP VBD , SBAR , PP->1
PP IN `` NP->10
SQ VBP NP PP->1
S INTJ , S , PRN , CC S .->1
VP VBG NP PP ADVP->2
VP MD S->6
S NP ADVP VP , SU->1
NP NP PP VP->3
S S , CC S :->1
FRAG INTJ , SBAR .->3
NP QP NP->1
NP JJ NNPS->7
 FW->8
S SBAR S->1
S SBAR , `` NP VP . ''->1
NP NP NP->237
NP NNP NNPS NNP->6
S CC NP , VP .->2
NML NN SYM NN->3
ADJP NML JJR PP->1
NP DT JJ NNS NNS->2
S NP EDITED VP->4
VP VBP ADJP , SBAR->1
NP RB DT NN NN->2
INTJ UH NN .->1
NP NNP CC NNP CC NNP CC NNP->1
NP RB JJ NNS->3
 INTJ->252
NP DT NNP CC NNP NNP->2
VP VBZ ADJP , PRN , PP->1
NP NP  PP ->6
VP VBD SBAR , PRN , SBAR->1
UCP NP CC ADJP->2
S PP , NP VP->56
PP IN , PP , NP->1
NP JJ NN NN NNS->1
NP DT JJ NML NN NN->1
WHNP WHNP NP->2
NP DT UCP NN->2
FRAG WHADJP : CC NP .->1
VP VBP PP->99
VP VB CONJP VB->1
VP VBN NP ADVP NP PP->1
S SINV , S .->2
NP DT NN :->1
NP NNP NNP NNP , NNP->1
VP VBZ `` S '' PP ADVP->1
VP VBN PP NP->1
S EDITED , PP , NP VP SU->1
VP VB ADVP PP NP->1
VP VBN NP `` NP ''->1
S INTJ CC ADVP NP VP .->1
NP DT VBN NN NN POS->1
S NP EDITED , EDITED , EDITED , VP->1
S INTJ EDITED NP VP SU->6
VP VBD PP , ADVP->1
NP NP , ADVP PP->1
S NP ADVP VP->196
VP VP CC VP VP->1
NP JJ NNS S->2
VP VBP ADVP SBAR->4
VP VBD S , PP , SBAR->1
VP VBP NP PP ADVP->1
NX NN NN->1
ADJP ADJP ADVP PP->1
S S CC S VP->1
SQ INTJ , VBZ NP NP SBAR :->1
VP VBP VP->443
S SBAR , SBAR , NP VP .->1
NP NP NN POS->1
ADJP RB DT->3
NP DT ADJP , ADJP NN->1
VP VBD PP '' S->1
NP NP : NP CC NP->1
NP NP NP NP NP->1
VP VBN NP PRT->15
SINV MD NP VP->6
NML RB HYPH NML NNP->1
NP JJ , JJ->1
VP VBZ NP , '' PP->1
NP PDT DT NNP POS->1
NP NP , NP , NP , NP , NP , NP , NP , NP , NP , NP , NP , NP , CC NP->1
SBAR WRB IN S->1
SQ INTJ , S , SQ .->1
NP JJ NML NNS->7
NP JJ JJ NN NNS->4
PP PP NAC->2
NP NP NNP NNP NNS->1
VP VBD , VBD , CC VBD NP->1
VP VB CC VB->1
VP VB ADVP ADVP , SBAR->1
S SBAR NP VP .->3
VP VBN NP : PRN : SBAR->1
VP  ADVP PP->1
VP VBZ ADJP SBAR->26
VP VBN , `` S ADVP->1
SINV SINV CC SINV->1
SQ CC ADVP PP , SBAR VBZ NP ADJP .->1
SBAR WHNP , S->8
S NP : S CC S .->1
S NP , VP :->1
NP DT EDITED JJ NN->1
VP VBZ , PP , SQ->1
VP VBP ADVP INTJ SBAR->1
SBAR WHADVP S .->1
S EDITED NP VP .->3
UCP PP CC VP->1
FRAG RB NP->2
NP JJ NN CC NN->10
ADVP JJR PP->1
NP DT NML->20
NP `` S '' PRN->1
NP NN S->9
PP IN NP SU->3
S NP , NP , NP VP .->1
VP VBD RB ADVP->1
NP NML NML NN NN->1
VP TO EDITED ADVP VP->1
ADJP  PP->1
QP CC JJR->2
SBARQ UH WHNP SQ .->1
VP VBZ PP->127
NP PRP$ NN NNS->16
VP EDITED , VB SBAR->1
ADVP RB JJR->2
NP NP , NP->299
NP PDT DT NNS->18
FRAG ADVP NP .->4
S NP VP : . ''->1
VP VBG '' NP ''->1
PP PP : PP :->1
SBAR PP WHNP S->1
NP MD CC VBZ->1
PP NP IN PP->1
UCP ADJP , ADJP CC PP->1
SBAR EDITED IN S->1
VP VBD RB PP->2
VP VBP INTJ VP->1
S S CC S , CC S->1
VP VBN S PP , ADVP->1
S CC CC PRN EDITED NP VP SU->1
VP VBD PP , SBAR->4
FRAG CC ADVP .->1
VP VBD NP ADVP ADVP->2
SBAR WHNP S . ''->1
S CC S , NP  ADVP  VP . ''->1
VP VBD NP PP , SBAR->2
PP VBG SBAR->1
VP VB NP PP , ADVP->1
SQ CC VBZ NP PP .->1
SQ VBZ NP NP SBAR->1
NP NNP NNP SYM NNP NNP->1
NP DT NNP NN->70
S CC NP VP SU->113
NP DT NML NNP NML->1
S PP , NP PP VP .->1
NP ADJP , ADJP->1
VP VBD ADJP , S->2
EDITED CODE VBP VBP CODE->1
PP CONJP PP CC PP->1
NP DT CD NN NNS->2
NP NP PP SBAR->18
NML NNPS NNP->1
S EDITED NP NP VP .->1
QP NNS CC , PP , NNS->1
S CC NP , PRN , INTJ , NP VP SU->1
SQ INTJ VBZ NP ADVP SU->1
NP NP , PP , PP , S , NP->1
NP NML NN->23
VP VBG ADJP , PP : NP :->1
VP VP  CC VP ->1
NP ADJP NNS->74
VP VB ADVP , SBAR->1
UCP ADVP CC PP->2
NP PRP$ NAC NN->1
NP DT JJ VBG NNS->1
PP IN : NP->9
SQ NP ADJP->2
NML NNP PP->2
VP VBD NP ADVP PP->3
ADJP ADJP CC , PP , ADJP->1
FRAG CC WHNP ADVP SU->1
VP VBN NP , `` SQ->1
S CC , INTJ , EDITED NP VP .->1
S NP , PP VP .->2
NP NNP POS->152
WHNP DT WHPP->1
VP VBZ ADVP , SBAR->1
S CC , PRN , NP ADVP VP .->1
VP VB NP , PP->6
FRAG CC NP->1
VP VBG NP NP NP->1
QP ADVP CD->4
NP PRP$ NML JJ NNS->1
NP DT JJ NN POS->5
NP DT NML NNPS->4
NP DT CD S NNP->1
VP VB PP S ADVP->1
VP  VBD  VP->1
SBAR IN , PRN , S->2
NP NP NNS , NNS , CC NNS->1
VP VBD NP PP , NP->1
VP VBD PRT , ADVP , SBAR->1
S NP , PP , SBAR .->1
S INTJ , NP , NP VP->1
 VP->3
NP NP , UCP , PP->1
S ADVP NP , VP->1
VP VBP CC PP->1
NP PRP$ , UH , NN->1
NP ADJP , NNP->1
S NP VP PP->1
VP ADVP VBN NP PP , SBAR->1
NP NN SU->1
VP VBP ADJP , PP->1
PP IN INTJ INTJ NP->2
VP VBZ RB ADVP VP->4
FRAG NP ADVP .->1
 WHPP->2
VP VBD ADVP , S , SBAR->1
S NP ADVP : PRN : VP SU->1
SBAR SBAR , CONJP NP->1
SBAR WHADVP FRAG->2
NP NP , SBAR->151
NP NNP NNP NNP->151
VP VB SBAR PP->3
RRC  S ->1
ADVP IN RBS->1
SBAR SBAR CC SBAR->25
NP PRP$ NNP CD NN NN->1
VP VBP NP PP->61
VP VBG PP ADVP PP->1
S CC VBP NP VP .->1
VP VBZ ADVP UCP->1
VP VBP DT PP->1
WHADVP WRB CC WRB->1
VP VB UCP->2
NP NN NN NNS CC NNS NNS->1
UCP NP CC PP->1
S IN S->1
NP NP JJ NN S->1
PRN CC S->11
S  NP VP :->1
VP VBZ ADJP S , SBAR->1
NP NP  SBAR ->5
S NP : PRN : NP->1
SINV NP , NP VB NP->1
VP VBD , SBAR , SBAR->1
NP JJ DT NN SU->1
NP RB DT JJ->2
NP NP PP ADVP->5
SBAR IN IN '' S->1
SBARQ WHNP SQ ,->1
VP VB S , EDITED , ADVP->1
VP VBZ NP RB ADJP->1
ADJP JJ , JJ->2
VP VBZ  NP  SBAR->1
VP VBG ADVP PP S->1
S EDITED CC NP VP SU->3
NP FW , FW , FW->1
NP NP  ADVP ->2
PP IN NP CODE->2
VP VBG PP , ADVP->1
NP PRP$ NNP NNP NNP->2
NP PRP$ CD NNS->2
S S : S : S->1
EDITED CODE NP CODE->14
FRAG INTJ NP . SU->1
WHNP WP NN->8
VP VP CC RB VP->4
NP NP ADVP->52
SBAR SBAR , SBAR , NP->1
NP NP  CC NP CC NP ->1
VP VBZ UCP->5
NML QP NNS->11
SBARQ WHNP SQ->15
NP DT DT JJ NNS->1
NP NP NP NP NP NP , NP NP->1
NP DT JJ , JJ NNS->2
QP JJR IN JJ->1
NP NP NP CC NP->1
VP VBZ RB S->1
SQ SQ CC SQ->1
NP JJ IN , FW->1
ADJP ADJP PP PP->1
WHNP WDT->629
NP NP : ADVP :->1
VP MD RB VP->100
NP CD NNP->5
VP VBZ PP PP->2
S NP ADVP ADVP VP .->3
VP VBZ PRT PP , PRN , SBAR->1
NP LST NP ADVP->1
SBARQ INTJ INTJ WHNP SU->1
VP VB NP , ADVP , PP->1
VP VP CC , PP , VP->6
SQ CC PP , VBD NP VP .->1
VP VBG PRT SBAR->1
VP TO ADVP VP , PP->1
NP PRP$ JJ NNP NN->1
VP VP : CC VP->2
NP NP , PRN NP->1
ADJP JJ IN JJ->1
S INTJ , PP , NP VP .->2
NML NNP NN NN->1
SBAR IN `` PP , NP VP->1
VP VBP S PRN SBAR->1
VP VBD SBAR NP->2
NP DT JJ NML NN->15
NP DT ADJP NNP NN->1
S ADVP , PP VP NP . ''->1
EDITED CC :->2
SQ SQ , SQ->1
WHPP IN NP->1
VP VBP ADJP NP->1
VP VB NP ADVP NP->1
NP NP : NP NP->1
S S S SU->1
NP QP NN->27
VP VBP S , SBAR->5
S PRN , NP VP SU->1
NP JJR NN->11
VP NN NP->1
NP NP JJ NML PP->1
VP VBZ ADJP , ADVP , S->1
NP NP , NP , CC PP NP->1
S NP VP . ->3
NP NNP NNP NNPS NNP POS->2
VP VBN->18
SINV CC VBP NP VP .->2
NP NML NN CC NNS->1
VP VBD NP PP PP , VP->1
ADJP JJ , JJ , JJ , CC JJ->1
NP NP PP , PRN->2
PP IN EDITED , NP->1
PRN , PP ,->1
NP CD CC CD->5
PP TO NP->866
NP NP EDITED INTJ PP->1
QP RB CD CC CD->2
SQ VBP NP ADJP , NP .->1
VP VBG NP : PRN : PP , SBAR->1
VP VB PRT NP INTJ->1
SBAR WHADVP `` S->4
S `` NP VP .->19
VP VBN NP PP , SBAR->5
VP VBD SBAR , S->2
VP VBZ RB SBAR->2
NP PRP ADJP NN->1
ADVP RB , RB , CC RB->2
S ADVP PP , NP VP .->2
VP VBD PP NP SBAR->1
NML NNP NNS->1
VP VBG PP , PP->1
VP VBG INTJ SBAR->1
NP NP PP , S->1
SINV VBP NP VP->3
ADJP JJR RP->1
NP PRP$ JJ NNS S->1
ADJP RB JJ , JJ CC JJ->1
NP DT VBG JJ JJ NN->1
NP NP PP=4->1
NP PP , NP->1
NP `` PRP ''->1
SINV CC PP VP NP .->1
SBARQ SBAR , WHADVP SQ->1
SBAR ADVP , WHNP S->1
VP VBZ '' ADJP->2
VP VBD ADJP PP , PP->1
NP NP , NP , CC NP->29
PP TO : PRN : NP->2
FRAG ADVP , NP : S .->1
VP VBZ ADVP NP->26
VP VBD NP NP , VP->1
NP NP CC NP->332
EDITED CODE CC CODE->7
VP VBG NP , SBAR->2
VP VB SBAR NP PP->1
NP PRP$ NNP->51
NP DT CD JJS NNS->1
ADJP JJ CC RB JJ->2
FRAG CC WHNP .->1
VP VBZ PRT PP->3
VP VB ADJP ADVP->3
NP PRP$ JJS NNS->2
S PP , '' NP VP->1
FRAG INTJ ADJP SU->2
X IN->1
NP NNS , NNS , CC NN->2
S PP , S , S .->2
NP DT NNPS NNP->2
S CC NP ADVP ADVP VP , SU->1
QP IN CD CC CD->1
SINV PP VBD VP NP . ''->1
NP PRP$ NNP NN->3
SINV VP VBZ NP .->1
NP DT '' NNP ''->1
NP NP NN NNS->7
ADJP JJ CC '' JJ PP->1
VP SYM NP->2
WHPP TO WHNP->4
NP NP , CC SBAR->3
VP VBN NP , PP PP->1
NML NNP NNPS->11
VP VBN NP PP , NP->1
VP VB ADVP S->2
SQ VBD NP ADJP->1
NP PRP$ NML NNS->2
S ADVP , PRN , NP ADVP VP .->1
S CC ADVP SBAR , S : SU->1
NP RB PRP$ NNS->3
S NP S , VP->3
NML JJ NN->55
VP VBD UCP ADVP->1
SBAR IN S .->16
S S NP VP . .->1
VP VBP RB VP->195
S : FRAG CC S->1
QP CD , CD , CC CD->2
NP DT NN , CC NNS->1
NP RBR JJ NNS->2
VP VBP NP PRT PP S->1
FRAG INTJ ADVP .->1
NP DT VBG NNP NNS->1
NP NP CC ADVP NP->1
VP VBP SBAR , SBAR->1
ADJP RBR JJ PP->3
VP VBD NP NP S->2
NML '' JJ NNS ''->1
S ADVP NP INTJ VP->1
NP  NP PP ->3
S S CC S S->1
NP NNP NNP->672
VP VBZ RB NP , ADVP->1
S CC S , S , CC S .->1
VP VB ADVP NP->12
NP PRP$ JJ CC JJ NNS->1
VP VBP PP ADVP->12
S NP , NP NP VP->1
S S CC S SU->1
NP NNS SU->3
S INTJ , SBAR :->1
ADJP JJ PP PP->3
VP VBZ S , SBAR->3
ADVP ADVP  NP ->2
S  NP RB VP  .->1
VP VB NP ADVP PP->2
SBARQ CC WHNP SQ .->20
S NP ADVP VP . ''->6
PP PP PRN PP->1
S PRN , SBAR , S .->1
S S , '' S->1
NP NP PP , ADJP->3
SBAR IN S SU->1
VP VBZ , S , PP->1
ADJP QP RB JJ->1
NP $ CD ->28
NML JJ NN NN->3
 UCP->5
VP VBD ADVP NP->13
NP DT NN S->48
NP PRP$ NN RP->1
NP NP , NP , NP , NP , CC NP->4
NP DT NNPS NN->1
NP VBN JJ NN->2
FRAG ADVP , INTJ .->3
VP VBD ADJP SBAR PP->1
NP DT JJ UCP NNS->1
SQ VBZ NP ADJP , NP .->1
S PRN NP ADVP VP->1
S CC PP , NP VP SU->1
S NP ADVP VP SU->8
UCP DT CC JJ->1
S NP  ADVP  VP->1
VP '' VBZ '' NP S->1
SQ VBZ NP ADJP SBAR .->2
NP NP NP , NP->2
VP VBP DT ADJP ADVP->2
NP ADJP RB JJ JJ JJ NNS->1
PP TO , PRN , S->1
NP DT CD NNP NNP->1
VP VBN NP NP ADVP->2
VP VBD NP NP PP->1
NML NML , NML , NML , CONJP NML->1
NP VBN NNS CC NNS->1
VP VBZ ADJP INTJ->1
NP NP NP , NP ,  NP ->1
NP ADVP JJ NNS->1
S CC PP , S , S .->1
VP VBN PRT PP PRN->1
EDITED SQ :->1
NP CD JJ NNS->15
VP VB NP ADVP , INTJ->1
SQ CC VBZ RB NP ADJP SBAR .->1
NP JJS->17
VP VP , VP CC VP ADVP->1
VP VB NP ADVP->96
NP ADJP->26
SINV VB NP NP->1
NP NAC NNP NNP->1
NP NNP NNPS CC NNP NNP->1
NP DT NNP NNP NNPS POS->1
VP VBD RB NP->9
S NP , '' VP->1
SINV VBD NP VP->1
VP EDITED INTJ PRN TO VP->1
ADVP NP JJR->2
NP PRP$ JJ CD NN->1
PRN SBAR->2
VP VBD CC VBD->1
VP VBZ ADVP RB NP->1
SBARQ CC WHADJP SQ .->1
VP VBD ADJP PP->8
VP VBG ADJP->13
VP VB NP , SBAR->8
VP VBP ADJP PP SBAR ADVP->1
S ADVP , PP , S CC S .->1
VP VBP PP SBAR->5
S S VP .->5
S NP NP VP SU->3
VP VBP PP PP , PP->1
S CC INTJ INTJ NP ADVP VP SU->1
INTJ UH CC UH SU->1
S NP RB VP->24
NP PRP$ NN VBG NN->1
NP NNP NNS NNS->1
VP VB ADVP PP->19
S CC , ADVP , PP , NP VP .->1
VP VBG NP SBAR->13
NML JJ NNS->12
VP VB PP S->8
NP NNP , SBAR->1
NP CD VBG JJ NNS->1
VP VBZ ADVP PP PP->1
PP=3 IN NP->1
VP VBN PP , INTJ , PP->1
VP VB PRT NP ADVP->3
NP JJ NN NN->22
S CC ADVP EDITED SBAR NP ADVP VP SU->1
NP NP SYM NP->1
S NP , ADVP , VP .->3
VP VP , VP , CC , S , VP->1
NP NP JJR->1
VP VBP ADVP PP ADVP->3
VP VB NP , S , S->1
SINV ADVP VP NP SU->1
ADJP NP JJR->7
NP JJ JJ NML->1
VP VBD NP : '' : S->1
ADVP RB  CC RB ->1
NML NML NNP NNP->9
NP SBAR , `` NP->1
SBARQ WHADVP SQ .->10
NP NP  CC NP ->3
NP NP NP PP->3
NP NP : PP->5
VP VB NP NP , PP->1
NP DT UH NNS->2
S `` S , SINV , CC SINV . .->1
VP VBN NP ADVP NFP PRN->1
S CC SU->7
VP VBZ PP SBAR->6
NP NP VBN NN->1
VP VBD NP->654
VP VBZ ADVP RB NP S->1
UCP NN , JJ CC NN NNS->1
ADJP ADJP `` ADJP->1
SQ NP VP .->1
S INTJ , S , CC S . SU->1
NP NNP `` NN ''->1
NP NP CC , PRN NP->1
NP QP DT NN NN->1
S S , SQ :->1
S NP EDITED INTJ VP->1
VP VBG PP , S->1
VP VBD , SQ->1
NP NNP NNP ,->1
VP NN VBG->1
ADJP CC JJ CC JJ->1
S SBAR , NP VP : S .->1
VP VBZ RB PP->4
S ADVP , NP VP . SU->1
NP DT JJ `` NN NNS ''->1
WHNP WDT NNS CC NNS->1
QP RBR IN CD->2
NP ADJP JJ NN->2
ADJP ADJP , CC , PP , ADJP->1
FRAG NP PP .->4
EDITED CODE TO CODE->6
VP VBD NP , INTJ->2
SQ INTJ , VBP NP VP . SU->1
ADJP RB->4
VP VP CC NP ADVP->1
VP VBG ADJP SBAR->1
VP VB NP PP , NP , SBAR->1
QP '' RB RBR '' IN CD IN CD->1
NP JJ NN NN NP NNP->1
NP DT NNPS->71
VP VBD PP ADVP->19
VP VB NP VP->1
ADVP IN ADVP->2
NP DT NAC , NN CC NNS NNS NN->1
NP PDT PRP$ NNS->3
S PP , '' '' NP '' VP .->1
NP PRP$ JJ NN NNS->4
SQ INTJ , MD NP VP .->1
QP CD JJR->1
VP VBZ RB NP SBAR->1
NP VBD , VBD->1
S FW FW FW->1
S NP ADJP->106
VP VB SBAR SBAR->2
S S : SBARQ->1
VP VBP NP , S->2
FRAG EDITED , PP : NP . SU->1
VP VBZ ADJP SBAR , SBAR->1
VP VBZ NP NP ADVP->2
NP NP INTJ , NP->1
PP RP NP->4
S NP PP->23
S CC PRN S CC S .->1
ADJP RB CD->2
NP DT JJ , ADJP NNS->1
S S , S , CC S .->1
NP DT CD NNS->14
S INTJ , EDITED INTJ , NP VP .->1
NML DT JJ->2
NP NP , NP .->4
NP DT `` NN ''->5
SINV VBP NP PP->1
INTJ NN->1
NP NP , SBAR ,->2
NP DT ADJP NN S->1
NP NP `` NP ''->3
VP VBD ADVP NP PP->1
NP NP  `` NP '' ->1
VP VBZ , INTJ ADJP->1
VP VB ADJP->97
ADJP `` JJ '' CC `` JJ ''->1
NP NP ADJP->84
NP DT ADJP NN SBAR->1
VP VBZ ADVP NP , INTJ->1
VP VBZ ADVP NP , SBAR->1
FRAG RB ADVP ADVP SU->1
VP VBP `` FRAG ''->1
INTJ UH , UH ,->1
NP PRP$->6
SBAR SBAR , SBAR , CC SBAR->1
FRAG PP VP PP NP->3
VP VP CC ADVP VP ADVP->3
ADVP ADVP CC ADVP->1
NP ADJP NNP->6
NP JJ JJ NNP->1
VP VBN , SINV , PP->1
VP VBP NP : NP->1
WHNP WHADJP JJ NNS->1
VP VB PP , S->1
S CC ADVP NP VP SU->8
SQ VBD NP ADVP VP .->2
NP JJS JJ NNS->5
S '' S , CC S . ''->1
NP DT CODE JJ CODE JJ NN->1
VP VBP NP ADVP ADVP->3
S INTJ , EDITED , PRN , NP ADVP VP . SU->1
VP VB ADVP NP PP->1
S INTJ CC PP NP VP SU->1
UCP S , NP , NP , NP , CC NP .->1
VP VP `` CC VP->1
VP VBD NP , S->20
NP PRP$ JJ NML->1
PRN INTJ .->1
VP VB , ADVP , SQ SBAR->1
VP VB PP PP PP->1
VP VBN S->72
VP VBZ ADJP PP ADVP->1
VP VBN NP PP ADVP->26
NP PRP$ VBG NN->5
NP NNPS , NNPS , CC NNPS->1
VP VBZ NP : PRN :->1
S INTJ , SBAR NP VP SU->1
WHNP WP$ JJ NN->2
NP PRP$ JJ '' JJS '' NN->1
QP CD TO CD->6
EDITED CODE DT CODE->16
S PRN , NP , NP VP->1
VP VBP ADVP ADJP PRN S->1
NML CD NN->5
SQ CC VBD NP VP . SU->1
NP JJ JJ NN->19
NP '' NN CD ''->2
PP IN INTJ INTJ INTJ INTJ NP->1
PP TO UCP->1
NP PRP$ NNS S->2
NP PRP$ NNP CD NN->2
S SBARQ , SQ , SQ .->1
PP VBG S->2
VP VBG PRT PP->16
NP NP , NP PRN->1
SINV PP VP NP .->6
NP NP , NP , NP , NP , NP , NP , NP , NP , NP , NP , ADJP , NP , NP , CC NP->1
NP DT NN->3470
VP VBN SBAR PP->1
NP PRP$ VBN NN->2
NP RBS->1
VP VBD NP NP SBAR->6
NX NX CC NX->3
VP VBD ADVP NP , '' SBAR->1
ADJP JJ RB S->2
NP PRP$ NN NNS NN->1
S NP ADJP SBAR->16
VP VBD NP , INTJ , NP->1
NP DT JJ NML NNP->1
S NP VP->6759
QP CD SYM CD->1
PP PP , RB PP->1
NX NNS->3
NP DT CD NNS NNS->1
VP VBP NP NP->11
PP IN NP ADVP->1
VP VBG '' ADVP VP->2
VP VBZ DT VP->1
NML S->1
VP VBD ADJP EDITED PP->1
S S , S , S , S , S , S , CC , S->1
PRT IN->1
NP DT JJS CD->1
VP VBZ , SBARQ->1
ADJP RB JJ SU->1
SBAR SBAR , SBAR->3
NP NNS NNS->1
ADJP VBN CC VBN->2
NP PRP$ ADJP NNS->6
SINV S , NP VP . ''->1
S CC SBAR VP .->3
VP VBG '' S->1
S PP , NP VP , CC S->1
ADJP NN HYPH VBG->9
NP DT JJS JJ NN->1
NP DT NN , NN CC NN NNS NN->1
VP VBN NP : NP->5
NP DT ADJP NNS->30
INTJ UH UH->14
S INTJ , NP VP->4
S NP VP . .->1
PP RB PP , CC PP->1
NP NNP NNPS SU->1
EDITED IN->1
VP VBD NP PP , PP->1
NML NML , NML , CC NML->5
SQ MD RB NP VP .->2
S CC S : S .->1
FRAG ADVP , NP .->2
NP PRP$ NN SBAR->5
NP NNS POS->6
VP VBD CC VBD NP PP->2
FRAG CC S , CC ADVP .->1
NP NP EDITED SBAR->4
S CC INTJ PRN NP VP SU->1
NML JJ NNP->3
VP VBN '' NP S->1
ADJP `` NML JJ '' PP->1
SQ CC VBD NP NP .->1
NP DT `` WRB ''->1
ADVP FW FW->3
NP NP , INTJ , NP->4
NP ADVP NN->2
VP VBN ADVP->13
S SBAR , NP ADVP VP .->3
VP VBN NP S PP ADVP->1
VP '' VB NP '' SBAR , PP->1
SQ VBD NP NP SBAR->1
VP VBZ ADJP EDITED PRN NP->1
NP JJ NNP NNP NNS->1
VP VBG CC VBG->2
NP IN NP->1
VP VB NP S , CC S->1
SBAR IN NP->6
S  INTJ NP VP . ->1
VP VBN S , SBAR->1
ADJP ADJP SBAR SBAR->1
VP VBZ ADVP SBAR->1
SQ SBAR , MD '' NP '' VP .->1
NP CONJP NP , CONJP NP->1
ADJP JJ : CC RB JJ :->1
SBAR IN S VP->1
VP MD INTJ->1
VP VBP PRT NP->5
NP NP PRN PP->1
S IN NP VP . SU->1
S PP , '' NP VP .->1
VP ADVP VP->1
S EDITED INTJ CC NP VP SU->1
NP NP : VP->1
VP VB PRT PP PP->1
VP VBD PP ADVP SBAR->1
VP VBG NP PP SBAR->3
UCP PP CC , ADVP , ADVP->1
FRAG PP , INTJ .->2
NP NP NML PRN->1
S NP VP :->24
VP VBZ , `` S->4
VP VBZ NP PP , SBAR ADVP->1
QP IN CD->5
NP PRP$ NML->8
ADJP CD NN->6
NP DT NML NN NN POS->1
ADVP RP->1
S CC NP ADVP VP , SU->1
INTJ UH UH SU->17
SBAR ADVP WHADVP S->1
S PP NP VP->34
NP NP , SBAR , NP->1
ADJP NNP SYM NNP->2
VP VBG `` NP->1
VP VBG PP , PRN SBAR->1
WHNP WDT NN NNS->3
S NP VP ->1
VP VB PP PP ADVP->2
S NP '' VP .->1
VP VB `` NP ''->1
VP VBN NP `` NP '' PP->1
NP VBG NN->2
VP VBP , PRN , NP , PP->1
NP NNP CD , CD ,->1
NP CD JJ NN JJ JJ NNS->1
PP IN WHADVP->2
NP DT NML JJ->1
VP VBG PP S '' , S->1
NP NP , '' S->2
NP JJ JJ JJ NNS->3
NP JJ JJ JJ NN NNS->1
S SBAR , NP VP . SU->1
NP DT VBN $ CD ->1
S INTJ , S , S .->2
VP VBD ADVP S->9
S PP , NP VP : .->1
VP VBD ADJP ADVP->10
ADJP RB RB JJ->11
ADVP RB IN NP->1
VP VBD RB ADJP ADVP SBAR->1
VP VBN , VBN , CC VBN NP->1
S CC NP , NP VP . SU->2
NP NP ADJP NN->2
FRAG ADVP PP , '' CC NP , ADVP .->1
NP NP PP , PP->10
S  S , CC S . ->1
NP NNP NNP NNP NNP->17
SINV VBZ NP NP->1
NP PRP$ NNP NNP NNP JJ NN->1
NP NP , NP : NP->1
SBARQ SBAR , '' WHNP SQ .->1
SQ VBD NP ADVP VP->1
NP NP , NP , NP , NP , NP , CC ADVP->1
S INTJ , S :->1
NP NNS ADJP->1
VP VBP , PP , ADVP NP->1
S ADVP ADVP NP VP->1
S NP NP VP .->11
NP JJR NN NN->2
VP VBD PP PP , PP->1
VP VB PP CC VP->1
VP VBZ ADVP->22
VP VBP ADVP , NP , PP->1
S `` S '' VP .->1
ADJP ADJP , ADJP , CC ADJP PP->1
S EDITED INTJ NP VP SU->2
VP VBD NP S , SBAR->1
S `` NP VP , ''->1
VP VBZ ADVP NP PP->1
PRN CODE INTJ INTJ CODE->1
ADVP NP RB RB->1
NP PRP$ NN CC NN NNS->1
FRAG NP NP->1
VP VB S , NP->1
NP DT VBN $ QP ->1
NP DT ADJP NNP->3
VP VBN NP , SBAR ADVP->1
VP VBG NP ADVP->18
NP NP , ADVP NP->2
NP NP JJS NNS->1
S PP , NP , VP .->4
NP DT CC NNP CC NNP->1
VP VB PRT PP , SBAR , PP->1
PP IN `` NP ''->3
INTJ UH , UH , UH , UH , UH , UH , UH->1
S ADVP NP NP VP->2
VP VBP NP , ADVP , S->1
VP VBP , S ADVP->1
NP NNP , NNP NNP->3
NP DT NNPS CC NNP NNP->1
SQ NP->1
NP NP JJ NNS->20
VP VBZ PP NP->3
SQ NP VP->7
NP `` NN '' NNS->1
S S , PP , NP VP .->1
PP  VBG NP ->2
S SBAR , S , CC S->1
NP NNP NML NN->1
SQ VBZ RB NP ADJP .->2
NP NNP NNP :->1
EDITED CODE S CODE->41
VP VBZ ADJP S->18
S CC NP , S , VP .->1
S NP ADVP , VP->1
RRC ADVP VP->1
NML $ CD ->4
SBAR ADVP WHNP S->1
FRAG INTJ , NP->1
S NP `` VP ''->1
NP NP NP NP NP NP NP NP NP NP NP NP NP , NP , NP , NP , NP->1
VP VB NP , NP->6
S ADVP , PRN , NP VP .->1
NP RB DT JJ NN->14
S NP VP CC VP .->1
PP PP PP->22
NP DT NML JJ NN->3
VP VBD NP NP S PP->1
S CC INTJ NP VP .->4
VP VBD S : PRN : SBAR->1
SQ PP , VBD NP NP SBAR .->1
VP VBD PP PP , NP->1
FRAG NP ADVP->2
S CC , INTJ , NP NP VP SU->1
VP VBP , PRN , VP->1
VP CC VP CC VP->2
NP DT '' JJ '' NN->1
SBAR SBAR CC NP->1
NP NNP CC NNP NNP NN S->1
NP NP '' NP , ''->1
ADJP JJ PP->192
ADJP RB RB JJ CC JJ->1
VP VBD , SBAR->3
NP RB CD NN NN->2
VP VBN CC VBN NP PP->3
VP VBG S->152
VP VBG CC VBG PP->1
NP NP CC SBAR->2
VP VBD : '' S->1
S CC ADVP , PP , NP VP . SU->1
VP VBZ '' NP->2
VP VBZ NP PP S->1
NP DT JJ ADJP NN->4
NP DT NN JJ NNS->1
NP DT NN NN->332
VP VBD PP , PP->4
NP NP ADJP  NP ->1
VP VBN NP PP->527
NP FW FW FW FW->1
NP NP : `` SBAR->1
S CC NP VP . ->1
NP DT JJ , JJ JJ NN->2
NP ADJP NNP NNP NNP->1
NP JJ NN :->1
VP VBZ `` INTJ '' PP->1
VP VBD S NP ADVP->1
VP VBZ NP , SBAR->7
S INTJ PRN NP VP SU->1
VP VP CC VP , SBAR->3
SQ VBZ NP ADVP PP->1
WHADVP WRB JJ->3
NP NP : NP .->2
NP '' NP '' CC '' NP->1
S CC NP ADVP VP . SU->8
VP VBD PP , S->7
VP VB , '' S->1
S CC INTJ INTJ : PRN : NP VP SU->1
VP VBZ NP PP SBAR->2
SBAR WHADJP S . ''->1
NP JJ UCP JJ NNS->1
S CC S S , S S .->1
VP VP CC VP CC PP VP->1
S EDITED CC NP VP .->1
NP SBAR : NP->1
SQ ADJP , VBZ NP RB , SBAR .->1
VP VBP DT VP->1
NP NP NML NNP->5
FRAG RB->2
S S , CC FRAG->1
VP VBD NP PP , '' NP->1
VP VBZ ADVP NP SBAR->1
 SQ->282
UCP NN CC JJ->2
VP VBZ NP , ADVP , PP->1
NP PDT DT NN->22
VP VBD RB SBAR->1
S CC NP VP : SU->3
VP VBZ RB VP->48
PP IN TO EDITED PRN , SBAR->1
SBARQ WHNP SQ .->21
SQ INTJ , NP , MD NP VP .->1
S EDITED , PRN , NP VP . SU->1
VP VBD S SBAR->1
NML CD HYPH NNS->2
S INTJ , SBAR , S , CC S .->1
SQ SBAR , NP VP . ''->1
VP VP CC ADVP VP->12
SBARQ WHADJP SQ->1
EDITED PP : CC->1
 SBARQ->111
VP VB S S->2
NP DT VBG NN->28
NP CD NNPS NNPS->1
FRAG NP ADVP SBAR SU->1
VP VBD RB ADJP ADVP , SBAR->1
S CC SBAR , NP VP SU->1
NP JJ JJ NNS->62
VP VBD ADVP SBAR->4
NP RB DT NN->18
SBARQ WHADJP SQ .->1
S '' SBAR : NP VP , ''->1
S NP , ADVP VP->1
VP VBD NP NP VP->1
ADJP VBN S->1
VP VBD NP PRT SBAR->1
ADVP FW->2
NP DT NNS POS->11
INTJ JJ NN .->1
S EDITED , CC NP VP , SU->1
NP NP RRC->7
S ADVP NP PP , S , VP->1
S SBAR , NP : VP->1
VP VBZ ADJP , ADVP , SBAR->1
SBAR IN , PRN , SBAR->1
NP NP NP NP , NP , NP->2
S ADVP '' NP '' VP .->1
NML NNPS CC NNPS->6
NP NP NML NNP NNP NNP NNP NNP NNP->1
NP RB ADJP NNS->1
NP CD NNS->129
NP NP S CC S->1
S PP , S , '' CC NP VP . ''->1
S '' SBAR NP VP .->1
VP VB NP , PRN , PP->1
NP NN DT->1
VP VP , VP , VP , CC VP->5
ADJP CC JJ PP->1
RRC PP , NP->2
S INTJ ADVP NP EDITED VP .->1
NP DT JJ NNS NN->2
NP DT NML NN->75
SBARQ WHNP SQ NFP '' .->1
NP NP PP ,->1
NP DT JJ NN S->7
NP ADVP NP PP->6
NP NNP , NNP ,->1
NP NP '' NML '' NN->1
NP NP PP , PP ,->1
VP VBZ SBAR PP->4
VP VBZ ADVP RB ADJP->1
VP VBD ADVP PP PP PP->1
ADJP RB JJ S->4
NP VBG->5
NP QP NN QP->1
NP DT CD NN NML NNPS->1
SQ VBZ NP VP->9
VP VBD PP PP SBAR->3
VP VBG NP PP PP->8
RRC NP NP->1
VP VBD INTJ PP->1
VP VBZ `` FRAG ''->1
FRAG ADVP , `` FRAG->1
S INTJ , NP VP : '' SU->1
S INTJ , EDITED , NP VP . SU->1
VP VP , VP , VP CC VP->1
SBAR WHADVP `` NFP ->1
VP VBN PRT NP->3
ADJP RB RB JJ S->2
S , ADVP , NP VP->1
S CC NP VP , '' SU->2
NP NNP . SU->1
NP DT `` ADJP '' NN->1
SBAR WHADVP , S->8
S CC NP : PRN : VP SU->1
VP VBD NP , PP->7
NP DT JJ NN  FW ->1
S NP ADJP S->3
S CC , INTJ , NP VP : SU->1
NP `` NN '' CC `` NN->1
VP VBP ADJP , ADVP->1
NP `` NP , '' PRN->1
NP JJ , JJ , JJ , JJ , JJ , JJ , JJ , JJ->1
VP VBN PP->54
VP VBG NP PRT PP->3
S INTJ '' NP VP .->1
NP DT JJ QP ->2
NP NP : `` S->5
EDITED CODE VBD CODE->3
NP NP , '' NP , '' NP , '' NP , '' NP , '' NP , '' NP , '' NP , '' NP , '' NP , '' NP , '' NP , '' NFP CC ADVP->1
INTJ UH NNP SU->1
NP NN NN CC NNS->1
NP DT NN NP->1
NP PRP$ NN CC NNS->1
S SBAR NP VP . '' SU->2
NP NN NN NNP NNP->1
VP VB INTJ NP PP->1
S SBAR , NP VP .->94
SBARQ CC WHPP SQ .->2
NP NP CD , NP->1
UCP PP , CC ADJP->1
NP JJ NN , NNS , CC NNS->1
S NP , ADVP , VP->4
VP VBD INTJ->2
ADJP RB JJ RP PP->1
NP DT JJ VBN NN->3
SQ VBP NP VP->32
 ADVP->44
WHADJP WHADVP JJR->1
FRAG INTJ , NP ADVP . SU->1
WHNP IN->1
S CC PP S , CC S .->1
VP VBG PP PP PP , ADVP->1
VP VBD NP , NP->2
S INTJ PRN EDITED ADVP NP SU->1
QP ADVP DT->1
NP PP , NP NP NP NP NP NP NP->1
VP VP : CC SBAR VP : NP->1
S S , CONJP S->1
S NP VP : SU->1
S CC , PP , S CC S .->1
S S->1
NML JJ JJ NNS RP CC RP->1
NP PRP$ UCP NNS->2
SQ VBD NP NP . ''->1
S NP , NP VP :->2
S `` PP S , NP VP .->1
SQ SQ , CC SQ .->1
VP VB NP S->66
NP DT JJS NNS->6
S NP VP VP->1
CONJP RB RB IN NP->1
NP NNP NN NNS->6
S INTJ , NP ADVP VP SU->1
NP DT '' PRP ''->1
NP NNP `` NNP '' NNP->1
QP IN $ CD CD->2
NX JJ JJ NNS->1
NP NP , NP , CC , ADVP , NP->1
NP NP CC , INTJ , NP->1
NP DT JJR NNP NN->1
FRAG ADVP NP , S->1
VP VBN SBAR->18
NP=2 NP PP->1
ADJP `` RB VBN->1
NP DT ADJP JJ NN->4
FRAG NP , ADVP , NP .->1
VP VP , CONJP VP->3
NP JJR NNS->11
NP NNP NNP NNP , FW FW->1
NML DT HYPH NN->2
S '' S , CC S , CC S , ''->1
NP DT JJ JJ NNPS->1
VP VB ADJP  PP ->1
S SBAR , INTJ NP VP .->9
SINV '' S , '' ADVP , VP NP .->1
VP VBG VP->52
VP VBP VBP NP->1
VP  PP->1
VP VBZ PRT PP ADVP->2
S CC , PP : '' NP , VP . ''->1
SBAR  WHADVP , S ->1
VP CONJP VP CONJP VP->1
NP NP PP PP , SBAR->1
QP DT CD->1
NP=2 NN->1
CONJP RB IN->14
VP VBG , S->2
NP QP JJ NN NNS->2
FRAG INTJ , EDITED EDITED INTJ .->1
ADJP ADJP SBAR , QP->1
CONJP CC CC CC->1
VP VB SBAR->239
NP RB DT NNP->1
VP VBZ CC NP->1
VP VBD CC VBD NP->3
NP JJ RB->1
NP NP ADJP PP->3
VP VB NP NP NP PP->1
VP VB NP , SBAR , PP->1
ADVP NP RB->35
SBARQ PP , WHADVP SQ .->1
FRAG RB PP , NP .->1
PP IN '' NP->5
S NP `` S->1
NP DT NNP NN NN->10
NP NP  VP ->4
S ADVP , NP VP .->55
VP VBP ADVP S ADVP->1
WHADVP RB RB WRB->1
NP NML UH NNP->1
ADJP ADJP PP->18
NP DT UH UH NNS->1
S CC NP VP->14
VP VBZ EDITED RB NP ADVP->1
PP ADVP IN NP .->2
S NP NP->76
SQ CC ADVP SBAR , VBP RB NP VP .->1
NP NP `` NX '' PRN->1
NP PDT DT JJ NNS CC NNS->1
S SBAR ADVP NP VP->1
NP PRP$ NNP NNP NNPS NNP NN->1
S S CC S :->1
EDITED CODE VBZ CODE->1
NP NP NML NNS->1
SQ VBZ '' NP '' NP->1
S NFP `` NP VP . ''->1
VP VBN PP S->5
S CC , S , CC S .->1
VP VBP DT NP->1
VP VBZ `` NP->2
VP VBP ADJP ADVP->4
VP VBD PP PP , S->3
S NP , SBAR , NP VP->1
VP VBD RB ADJP->13
S CC PP , SBAR , NP VP . ''->1
NP FW POS->1
S CC , PRN , NP VP .->2
S SBAR NP VP->8
S INTJ , NP NP VP .->1
NML JJ JJ NML->2
VP VP , VP CC VP SBAR->1
SBAR IN INTJ S->1
FRAG NP S . SU->1
VP VBN PP , ADVP , SBAR->1
VP VBG PRT PP NP->1
S PRN NP VP .->2
NP JJ NN NNP NNP NNPS NNP->1
S CC ADVP , ADVP , NP VP .->2
NP DT JJ QP NNS->1
FRAG SBAR , S CC FRAG .->1
NP DT NN SBAR .->2
S INTJ ADVP NP VP SU->1
ADVP ADVP NP->1
S CC PP , PP , PRN , NP VP .->1
VP VB , PP , SBAR->2
SBAR IN S CC RB->5
VP VBN NP S : PP ADVP->1
NP DT JJ NML NNS->2
S CC SBAR , NP VP .->3
FRAG INTJ ADVP SU->2
NP NN SYM NN->1
NP : NNP NNP->2
SQ CC VBZ NP VP .->1
VP VB ADVP , NP->1
NP PRP ADVP->1
NP NNS CD IN CD->2
NP RB ADJP NN->1
VP VBD PP NP->13
VP VB ADVP SBAR->5
S INTJ , ADVP , PP , NP VP .->1
S INTJ INTJ INTJ EDITED NP VP SU->1
CONJP IN RB IN->1
PP : IN NP :->2
NP PDT DT NN RP->1
PRN CODE S S CODE->1
VP VBN ADVP NP ADVP->1
ADJP JJ S->63
NP JJ NNP NNP NNP , CD->1
VP VBD NP ADVP SBAR->1
VP VBD NP PP S NP , S->1
NML NN NNS->13
S SBAR , ADVP NP VP->4
PP TO : PRN : CC NP->1
NP NAC NNP->1
S CC ADVP NP VP . SU->5
NP JJ NNS .->3
SBARQ CC SBAR , WHADVP SQ .->1
S CC , SBAR , NP VP .->1
NP NP JJ NN NNS->1
SQ CC NP , VBZ NP PP .->1
NP MD->5
NP PRP$ CD NN->1
NP NP PP , PP , PP->1
VP VB , PP , NP->2
NP NP NML NN->5
PP RB PP->1
S ADVP NP ADVP VP->1
S PP NP VP , SU->3
NP DT JJ '' NN '' NN->1
NP DT JJ NNS , NNS , CC NNS->1
NP DT JJ '' NN->1
NP DT CD NNS POS->2
FRAG INTJ NP NP .->1
VP VBD  NP  SBAR->1
S NP , INTJ , NP VP .->1
PP ADVP RB IN NP SU->1
NP NN , NN , CC NN->4
S S , NP VP . ''->2
NP NP ADJP NP->1
WHNP ADJP WP->1
VP VBD , PP , PP->1
VP VBN CC VBN NP->7
NP DT NNS NNS->1
NML NN , NN , NN CC NN->2
NP NNP NNP POS->60
VP VBP ADJP PP->3
VP VBN SBAR ADVP->2
NP ADVP NP , NP , NP , NP->1
S PP , PP , NP VP->1
NP NP SBAR S->1
S PP , SBAR VP .->1
VP VBN NP ADVP S->2
VP VB PRT PP->18
VP VBZ NP , INTJ->4
SQ VBD NP SU->1
VP VBP RB NP->9
NP NN NNS->176
VP VBZ , PRN , NP->1
PRN  PP ->1
NP DT VBN VBN NN->1
VP VB ADJP : FRAG->1
SQ INTJ , VB NP VP .->1
NP DT JJ JJ NN NN->8
NP DT `` NNP NNPS->1
NP JJ NNP CD->1
PP IN , PRN , S->2
PP JJ PP->1
VP VB NP , ADVP->1
NP JJR NN NNS->2
SBAR WHADVP NFP S->1
VP VB S '' PP->1
VP VBG NP SBAR , NP->1
S LST , NP PP VP .->1
S NP S , ADVP VP->1
WHNP WHNP ADVP->1
VP VP , NP->1
VP VB NP , PP , PP->1
S INTJ , NP , NP VP :->1
SQ VBD NP RB NP->1
NP VBG NNS CC NNS->1
NP NP : `` NP->1
VP VBN NP PP PP->61
PP  IN NP ->4
WHNP WDT NN->24
NP DT `` NML NNPS ''->1
PP IN NP ,->2
NP JJ NNP->38
VP VBN NP PP NP->2
NP PRP$ NNP NNP NNP NNP NN->1
NP DT CD JJ NNS->5
SBARQ WHNP SQ SU->5
FRAG CC NP SQ SU->1
VP VBZ `` NP , '' PP->1
FRAG NP PRN->3
NP NNP , CD , CC NNP->1
NP DT NN NNS->53
ADJP VBN SBAR->1
VP VBD PRT SBAR->2
NX NX , NX CC NX->1
NML  AFX HYPH NNP NNP ->2
ADVP RBS->3
NP DT ADJP NN NN NN->1
NP DT NN  CC NN ->1
UCP VP , VP , CC ADJP->1
PP TO `` NP ''->1
VP VBN NP ADVP NP->1
SBARQ CC WHADVP SQ SU->1
VP VBG NP , INTJ ADVP->1
VP VBP S , PP->1
SQ SBAR , VBP NP VP->1
VP VB NP PP , PP ADVP->1
NP CD NN->105
FRAG ADVP , NP NP->1
NP JJ NNS CC NNS->8
S CC ADVP NP NP VP SU->1
VP VBD NP , S ADVP->1
S S CC , S .->3
VP VBP UCP->1
EDITED ADVP , PP :->1
NP ADJP NML NNS->2
NML JJ->3
S NP , S , VP->2
S PP , SBAR , NP VP .->6
S PP , S CC S .->4
NP `` S , '' PRN NP->1
VP VB NP : NP->1
EDITED CODE SQ CODE->3
NP NNP NNP NNP , NN->6
VP VBD NP , PP , SQ->1
NP NNP NNPS NNP NNP->3
VP VBD RB ADVP ADJP->3
VP VBD '' ADJP->1
VP VBD RB , PP , VP->1
NML NN->40
ADJP RBR HYPH VBN->1
QP QP QP->1
NP UCP NNS->4
VP VBP RB  ADVP  ADJP->1
SBAR PP , IN S->2
UCP '' NP '' CC '' VP->1
NP VBN NNS , NNS , CC NN->1
PP VBG NP->35
NP FW FW->4
VP VBG PP NP->4
SQ VBZ NP NP . SU->1
S SBAR , SBAR NP VP .->1
VP VB PRT->21
FRAG S , FRAG .->1
NP PRP$ CC PRP$ NML NN->1
NML NML , NML CC NML->1
NP DT VBG NNP NN->1
VP VBN NP PP PP , SBAR->1
NP ADVP NP->7
NP PRP$ NNS CC NNS->5
VP MD ADVP PP VP->1
NML NML HYPH NML->1
S INTJ , CC NP :->1
NP DT NNPS NNS->1
S INTJ , S , CC , INTJ , S .->1
NP NN , NN CC NP->1
VP VBP : S->2
ADJP ADJP SBAR->15
FRAG WHADVP PP SU->1
S CC NP .->2
VP VB , NP->5
VP VBG ADVP NP->3
QP RB CD CC DT NN->1
S SBAR , PRN , NP VP . ''->1
S S PRN VP .->1
VP VB , SBAR->3
PP IN SBAR->76
NP NML NNP POS->2
S CC SBAR NP VP .->1
CONJP RB RB IN->14
NP JJ NN->380
VP VBN PRT S->1
SBAR RB SBAR , CC SBAR->1
NP NP HYPH PP->3
FRAG NP NP .->1
NP NP , NP NP->5
NP NN NML NNS->1
S NP , VP .->50
QP CD CC DT NN->1
SBARQ EDITED WHNP SQ->1
QP JJR IN DT->1
S CC ADVP S S .->1
PP PP , PP CC PP->2
NP CD VBN NNS->1
NP ADJP DT NN->3
ADJP RB VBG->2
SQ VBD->2
ADVP IN DT->14
PP ADVP IN NP->64
EDITED S , PP :->1
UCP PP CC ADVP->1
VP VP , VP CC VP NP->1
PP IN EDITED SBARQ->1
NP DT ADJP NML ADJP NN->1
VP VBD NP ADVP , ADVP->1
ADVP RB .->11
NP PRP$ NN NN->44
NP NP SBAR .->3
SBARQ INTJ WHADVP SQ SU->1
NP NNP NNPS->16
NP NP , '' NP->5
NP JJ NNP NNP .->3
PP IN PP->75
NP ADJP , NNS->1
PP IN NP PP->2
NP NN CC NN CC NNS->1
NP DT '' NN ''->1
SINV ADVP VBP NP ADJP  SBAR->1
ADVP ADVP SBAR->24
NP NP JJS NN->1
VP VBD PRT PP PP SBAR->3
PP IN : : NP->1
S PP , NP VP . '' SU->1
SBAR IN EDITED S->1
ADJP JJ RB->2
FRAG INTJ , NP , INTJ .->1
SQ MD NP VP .->14
S INTJ , SBAR : PRN , NP VP .->1
NP QP NNS->71
NP NP : NP->46
PP IN NP CC->1
S PRN EDITED NP VP SU->1
VP VB NP INTJ SBAR->1
VP VP CC VP CC VP CC VP->1
NP NP , PRN , NP->1
NP NP JJ JJ NN->4
VP VBN ADJP ADVP->2
S NP , SU->1
NP QP NN NN->6
S ADVP , NP VP->15
VP VBP NP S ADVP->1
S CC NP ADVP VP->1
VP VBZ ADJP , S->1
VP VBN CONJP NP->1
WHNP WP CODE->1
VP VP  CC : NP : VP ->1
ADJP WRB JJ->1
PP TO->6
VP VBN ADJP PP , ADVP , PP->1
SBAR IN , INTJ , INTJ , S->1
NP DT NNP->241
SBAR IN CC IN S->1
VP VBG ADVP PP->12
VP VBZ RB NP S->4
VP VBN S PP->6
VP VBP NP SBAR->14
VP VBZ S SBAR->1
S S CC S CC S->2
VP VBD PRT S ADVP->1
NP NP CC EDITED NP->3
EDITED CODE PRP CODE->26
VP VBD NP PRN S->1
NP NN CC NNS->10
UCP ADJP , NP S->1
VP VBZ PRT NP ADVP->2
VP VBD PRT NP PP PP->1
SQ VBZ NP NP->16
WHNP WDT DT NNS PP->1
S SBAR->2
VP VB PRT SBAR->3
SBAR WHNP , PRN , S->1
NP DT JJ NNPS CC NNPS->1
VP VBP NP ADVP , PP->1
VP VBD NP EDITED PP->1
SINV ADVP VP NP , S :->1
VP VBN NP PP PP ADVP->1
NP NNP , NNP CC NNP->1
NP ADJP '' S ''->1
NP NP , NP , EDITED SBAR , NP->1
S ADVP , NP VP . ->1
PRN  `` S VP . '' ->1
S '' NP VP ''->1
VP VBD , PRN , NP->1
NML NML ADJP->1
NP ADVP NNS->2
S EDITED NP VP , SU->1
NP NP SBAR PP->11
S NP , ADVP VP . ''->2
SINV VBP NP->1
VP VB PRT ADJP->1
S NP ADVP ADVP VP->7
S SBAR CC S->1
UCP ADJP CC VP->3
NP ADVP  NP ->1
NP NP VP->297
S S , S , S , S , CC S->2
S NP VP NP .->1
S CC : PRN NP VP SU->1
ADVP RB CC RB PP->3
S CC EDITED SBAR , NP VP .->2
QP JJR IN DT JJ CD->1
VP VBD NP S SBAR->3
NP CONJP NP , CC NP->2
S SBAR VP .->5
S ADVP , PRN , NP VP->1
VP VBN ADVP ADVP->4
NP NP HYPH `` NP ''->1
QP RB IN $ CD CC $ CD->1
ADJP ADJP : ADJP :->1
S PP , NP VP :->2
NP PRP$ NNS CC NN->1
WHADVP WHADVP PP->4
FRAG INTJ SBAR->1
NP EX->189
SQ MD NP VP->13
NP QP JJ VBG NNS->1
NP DT NNP CC NNP NN NNS->1
S EDITED NP SU->1
VP VBD NP PP SBAR PP->1
VP JJ->1
S NFP NP VP .->1
CONJP IN RB->1
S CC ADVP PP , NP VP .->2
PRT RP->352
S S , CC SINV->2
NML NNP , CD->1
NP NP PP SU->1
S NP VP '' PRN .->1
NP DT JJ NN SBAR->7
NP `` NP '' PP->1
NP DT JJ ADJP NNS->2
SBARQ SBARQ CC NP->1
NP PRP$ JJS->1
S S , CC S PP->1
S S , '' CC , S->1
NP RB RB DT ADJP  NN->1
FRAG : NP NP->1
VP VBD PP PP ADVP PP->1
VP VBD PP PP NP->2
S CC EDITED , NP VP . SU->1
NP NP . EDITED VP->1
VP VBP PRT ADJP->1
VP VBG : `` S->1
SQ VBP RB NP VP->1
PP TO : NP->5
S  PP , NP VP . ->2
NP JJ NNS->529
VP VBZ ADJP , NP->4
VP VBZ RB->2
VP VP CC RB EDITED , VP->1
NP PRP$ PRN CD NNS->1
VP TO INTJ VP->2
NML NML->3
ADVP IN NP->1
LST LS->6
PP IN EDITED PRN , NP->1
NP NNS CD->1
NML NN CD->1
NP : JJ NN :->5
SBAR SBAR , SBAR , SBAR->1
VP VB NP , S , PP->1
NP ADVP , NP->2
VP VBZ ADVP VP->33
NP NN , CC NN->1
VP VBN NP PP VP->1
VP ADVP VBN NP S->2
NP DT UH NNP NNP->1
NP NP ADVP PP->3
S CC ADVP NP VP ,->1
S PP , SBAR , NP VP->3
VP VBP NP SBAR : S->1
NP NML NN NNS->5
CONJP CC RB->9
NP QP VBG NML NNS->1
SQ MD RB NP VP->3
VP VBP RB ADVP VP->18
NP NN CC DT->1
VP VB ADVP ADVP , ADVP , SBAR->1
NP PDT PRP$ JJ NN->1
NP DT ADJP , JJ NN->1
NP DT '' JJ NN->1
VP VBD RB ADVP PP PP->1
SQ VBP NP EDITED VP->1
NP PRP$ JJ VBG NN->1
NP NP : RB NP :->1
S S , NP VP .->41
VP VB RB VP->12
NP NN NNS CC NNS->1
NP DT NML NNP->36
SBAR IN , S->12
S PRN , NP VP->3
NP NP CC NP POS->1
PP PP , PP->6
NP PDT DT UH NN NNS->1
VP VBP INTJ S->1
NP RB HYPH RB NN NN->1
NP DT NML NN CD->1
VP VBN INTJ NP->1
S CC , INTJ , NP VP SU->1
VP VBN PP PP PP->1
SBAR S IN S->1
NP DT JJ NNP NNS->5
VP VBN NP S PP->6
NP PRP$ NNP POS->1
S CC EDITED EDITED NP VP SU->1
NP RB JJ NN SU->1
VP VBN PP , ADVP->1
NP DT JJ , JJ NN NN->2
VP VBP ADJP SBAR->5
NP RB NNP NN->1
VP VBG PP PP->26
SQ NP RB VP->1
S PP NP , VP .->1
S ADVP NP VP . SU->3
NP NP '' NP->1
NP NNS CC NN NN->1
VP VBN NP SBAR->38
NP DT JJ JJ JJ NN->4
VP VBZ ADJP SBAR SBAR->1
VP TO VP ADVP->2
VP VB S SBAR SBAR->1
NP AFX HYPH CC NNS->1
ADJP RB JJ NP->1
VP VBN NP NP->20
NP NP , '' CC NP->1
ADVP RBS PP->1
LST JJ->2
FRAG `` FRAG '' VP .->1
NP NN JJ NN->8
VP VB ADVP NP SBAR->1
VP VBD INTJ ADJP->1
ADVP RB CC RB->13
PP ADVP IN XX NP->1
NP CD VBG NNS->1
S CC S : CC S .->1
VP  SBAR->1
PP PP , CC , PP , PP->1
NP NP , ADJP ,->2
VP VBN NP , PRN , SBAR->2
VP VP CC VP S->3
VP VB S SBAR->11
SBAR IN S CC RB , PP->1
S PRN , PRN , S->1
PP PP CC , PP , PP->1
VP VB NP , S->5
ADVP IN->5
NP RB AFX HYPH NNS NNS->1
S NP DT VP->1
VP VBN NP S PP PP->1
S NP : NP VP .->1
S NP , PP , NP , VP->1
INTJ UH UH .->6
VP VBN NP PP  PP ->2
SQ VBP NP NP->5
UCP NP CC RRC->1
QP DT NN->3
NP NML NML NNS->1
NP NML CD->1
SINV PP , ADVP VP NP .->1
NAC NNP NNP , NNP->1
SQ VBZ NP PP->7
NP VP CONJP VP->1
S NP RB ADVP VP->1
FRAG PP , `` S->1
NP PRP$ VBN NNS->1
NP DT NN PP->1
PRN  FRAG ->2
ADJP ADJP  CC , ADVP , ADJP->1
S '' S , CC S , ''->1
ADJP DT JJR->3
S NP , NP VP .->26
VP VBD RB PP , S->1
NP JJ , JJ , JJ NNS->1
VP VB INTJ ADVP SBAR->1
VP MD ADVP DT VP->1
VP VBP PRT ADVP->3
VP CC VBN CC VBN NP->1
S S , CC S ADVP->1
ADVP RB RB SU->1
NP DT JJ JJ->1
ADVP RB RB PP->8
VP VBG , ADVP->1
S S , CC NP VP .->1
ADJP VBN NN->1
S SBAR , NP ADVP VP->3
VP VBD NP PRT PP S->1
SQ VBD NP VP . SU->4
VP VP , VP , ADVP VP->1
NP PRP$ JJ NN POS->1
NP NP , NP , NP , NP , NP , NP , NP , CC NP->1
NP CD->321
VP VBN PRT NP PP->1
VP VBP INTJ->2
NP RB NP , CC NP->1
NP RB JJ NN->2
NP DT NNP NN POS->2
VP VBN PP SBAR , SBAR->1
UCP '' NP '' CC '' NP->1
VP VBN NP PP PP `` PP->1
NP NML NNPS->2
NML QP HYPH NN->1
WHNP CD->1
NP DT VBG NN NN->4
ADVP ADVP ADVP->1
NP JJ CD->6
VP VB NP SBAR->76
ADVP RB RB RB->6
WHNP WP$ NN->13
NP DT VBG NN NNS->1
SBAR IN IN S->18
NP DT NNP FW->1
NP NP , NP , NP , CC NP->19
NP VB->5
S NP ADVP VP . SU->3
PRN SINV->6
S NP ADVP->13
NML NML '' CC '' NML->1
PP IN NN->1
VP VBN NP PP INTJ->1
PRN S VP->4
NP PRP$ NNP NNP NN->2
NP PRP$ NNS->215
VP VB PP , SBAR->5
VP VB NP ADVP ADVP NP PP->1
VP VBN NP ADVP->60
ADVP RB ,->1
NP NP INTJ PRN PP->1
SBAR SBAR CC SBAR CC NP->1
VP VBG PP SBAR->3
VP VBZ : S->1
SQ VBP NP VP .->42
SBAR  INTJ S->1
NML NN CC NNS->1
S SBAR , ADVP , NP VP->2
S NP ADVP ADVP VP SU->3
VP VBN NP PP . ->1
SQ S , SQ->1
VP VBD PRT PP S->2
NP  PP , NP ->1
NML NNPS CC NNP->1
S S , CC S->40
S S EDITED S .->1
ADVP RB CC RB RB->1
SBAR EDITED , ADVP IN S->1
SQ INTJ , PP , VBD NP VP .->1
PP IN FRAG->2
NP DT NN CC JJ NN->1
VP VBD PRT->8
VP MD RB->2
S PP , ADVP NP VP .->1
NP ADVP , NP , CC S->1
FRAG NP->5
ADJP DT CC DT->1
PP IN NP .->8
NP NP , RB NP->3
VP VB->171
INTJ INTJ INTJ SU->1
SBAR JJ IN S->1
S INTJ NP VP->15
VP VBD PP : S->2
VP VBD NP PRT->1
FRAG INTJ , ADVP , NP . SU->1
WHADVP RB WRB->6
NP NP PRN->18
NAC NNP JJ->1
NP DT ADJP JJ NNS->3
VP VBD ADJP S->4
ADJP ADJP , SBAR->1
NP NNPS POS->3
NP NP , VP ,->1
NP RB CD NNS->1
VP VB PRT NP->23
VP VB ADJP SBAR->8
S CC NP , SU->2
EDITED CODE IN CODE->9
S INTJ , NP VP .->116
ADVP NN IN->30
RRC  ADVP NP ->2
S S .->3
SBAR WHNP VP->1
PP PP CC ADVP PP->1
VP VBG UCP->1
SQ CC VBD ADVP VP NP .->1
EDITED ADVP VP :->1
NP DT NN NN POS->5
ADJP JJ PP , SBAR->1
VP VBZ , S->5
S `` PP '' ADVP VP->1
NP DT JJ DT->1
NP VBD->4
NP NP , NP , S , S , CC NP->1
NAC CC NP->2
S CC S ADVP VP .->1
PP IN , PRN , INTJ NP->1
NP NP VBG NNS->1
NP '' NP , '' S->1
NP NP : `` INTJ->1
S NP MD ADVP VP .->1
S `` S , S , '' SBAR->1
FRAG CC , ADJP , NP . ''->1
NAC NNP PP->2
S S CC S , S .->1
VP VBG NP SBAR FRAG->1
NP NP : S , S , S->1
SQ VBD ADVP VP NP .->2
S S , CC S . ''->5
VP VB S ADVP->8
S CC S , CC S .->18
VP VBG PP S->2
S CC NP ADVP :->1
FRAG INTJ , NP ADVP ,->1
NP DT JJ NML NNP NN->1
SBARQ WHADVP SQ->10
VP VBZ PRT PP S->1
S NP VP '' :->1
S PP , S , S , S , CC S->1
VP VBN '' NP S SBAR->1
SBAR  ADVP IN S ->1
NP DT CD NN->6
VP VBN NP PRT SBAR->1
VP VBD DT ADJP->1
S CC SBAR , SBAR , SBAR , SBAR , NP VP .->1
S CC , PRN , ADVP , NP VP .->1
ADJP JJ ADVP->2
S INTJ NP NP VP SU->2
NP NN PP->4
S CC NP ADVP VP . ''->1
ADJP JJ JJ->2
NP QP NNS CC NNS->1
S CC SBAR .->1
S EDITED NP EDITED NP VP SU->1
VP VBZ NP PP->52
ADJP JJ , JJ , JJ->2
VP VBD NP , SBAR->9
NP NN . ''->1
NP DT '' NNP '' NNP->1
NP PRP$ '' NNS ''->1
NAC CC PP , CC S->1
SQ CC VBP NP VP .->7
ADVP DT RBR->1
WHNP NP PP->1
PP PP CC PP CC PP->2
NP VBN->2
NP DT NNP CD NNPS->1
S INTJ EDITED INTJ EDITED NP VP SU->2
NAC CC ADVP->1
S INTJ INTJ PP NP VP SU->1
NP NP , NP , VP->2
S S , '' NP VP . ''->1
S NP SBAR , NP VP .->1
NP JJ `` NNS ''->1
NP VBN NNS->12
VP VBD , '' S->4
S NP VBD ADVP->1
NP NML NNP->37
VP VB ADVP NP , PP , PP->1
S SBAR , SBAR , S , CC S->1
VP VBD S , SBAR->1
VP VBP S->154
VP VBG , PRN , PP->1
UCP VP CC ADVP NP->1
VP VBZ PP PP NAC->1
PP VBG PP->21
VP VBZ PRT S->1
FRAG CC SBAR .->3
S S , SQ->3
S INTJ , FRAG , S , CC S .->1
SBAR PRN WHNP INTJ S SU->1
VP VBZ RB PP ADJP SBAR->1
VP VP CC VP , INTJ->1
S ADVP , SBAR , '' NP VP .->1
VP VP , VP->10
NP=3 DT JJ CD NNS->1
FRAG CODE CC CC CC CC CODE CC NP INTJ S .->1
WHNP RB WP->5
SINV VP NP , SBAR->1
SBAR VBN , IN S->1
NP WDT->5
VP VB NP ADVP , SBAR->2
S INTJ PP NP VP SU->2
VP VBP S ADVP->8
VP VBD NP , PRN->1
VP VBD ADJP , SBAR->2
VP VBG NP , '' S->1
NP IN QP ->1
NP DT JJ NN->1009
NP NNS CC NN->1
INTJ `` UH .->1
S SBAR , PP , VP .->1
VP VBD RB ADJP ADVP->1
WHNP WDT JJ NN->1
PRN S->197
ADJP RB JJ PP PP->1
VP VB NP NP PP->4
SBAR  WHNP S . ->1
FRAG ADVP SBARQ , SQ CC SQ .->1
VP VBN PP PP , NP->1
SBAR SBAR IN S->1
VP  NP->9
VP VBN PP ADVP PP->1
CONJP RB TO VB->1
UCP JJ CC NN CC JJ->1
S SBAR , PP NP VP .->1
NP : NNP->4
NP  NNP ->8
FRAG INTJ , PP .->4
S S CC S CC S ADVP->2
S PP->1
ADVP NP RB PP->1
S S VP->8
VP VBN PP S PP->1
NML NNP NNP NNP->13
NML NML CC NML CC NML->1
NP IN CD->2
S S , S . ''->1
FRAG PRN , NP .->1
 SINV->37
NP NNP , NNP , NNP , NNP , CC NNP->2
 ADJP->16
ADVP RB->2019
SBARQ WHPP .->1
NP NML DT NN->1
SBARQ INTJ NP WHNP SQ SU->1
VP VBZ NP ADVP->17
NP DT `` NN '' SBAR->2
NP NP NNS->47
NP DT VBG NN : QP->1
VP VBP PRN SBAR->1
VP VB NP ADVP PP NP->1
SQ RB SQ , CC SQ->1
VP NP VBZ ADVP NP->1
NP NP VP S->1
VP VBD NP PRT ADVP->2
NP DT '' NN->6
VP VBD ADVP PP PP->3
SQ VBD NP PP->1
S NP : VP->1
S INTJ PP , NP VP . SU->1
VP VBP NP PP PP->2
NP NP SBAR SU->1
ADVP ADVP , PP->1
VP VBD , '' SBARQ->1
S  NP VP . ->5
NP NNS SBAR->7
NAC CONJP NP->1
S INTJ , CC NP VP SU->1
VP VBG ADVP ADVP->3
VP VBD PP , '' S->1
SBAR WHNP S .->2
S CC NP VP . ''->4
NP PRP$ NN S->7
S NFP S , NP VP .->1
NP DT NN NNS NN->3
VP VBG JJ , JJ NN NNS PP->1
SBAR RB S->3
NP JJ NNP NNPS->2
NP NNPS CC NNP->1
VP VBP NP ADVP->33
ADVP ADVP CC S->1
SBAR IN EDITED , S->1
VP VBN NP , PP , SBAR->1
S PP NP VP SU->1
VP VB PP , EDITED : ADVP->1
EDITED CODE S , CODE->1
S INTJ , EDITED SBAR .->1
NP NP NN->171
VP VBN NP , PP , PP->2
ADJP JJ : PRN : PP->1
NP NNP NNP NNP NNPS NNP->2
VP VB PRT ADVP PP->2
S SBAR NP VP , SU->1
NP JJ NN NN NN->4
SBARQ WHPP SQ .->1
NP NP CC NP , ADVP->1
WHNP NP WHPP->1
PRT RP SBAR->1
NP '' JJ NNS ''->1
NAC CC PP->3
S SBAR , ADVP , VP->1
S NP PP VP->10
SINV CC VBD NP ADVP VP .->1
VP VB ADVP NP PP PP , NP->1
NP DT NNP POS POS->1
VP VBZ NP S SBAR->1
NP PRP$ JJ NNP->2
S  CC SBAR , NP VP . ->1
S PP , SBAR , ADVP NP VP->1
NP NN NN NN->8
S NP , S , VP .->7
PP IN , ADVP , PP->1
NP NP , CC NP ,->6
S INTJ EDITED NP ADVP VP->1
NP PDT DT JJ NNS->3
VP VBG PP PP NAC->2
VP VP CC NP->1
S CC NP ADVP VP SU->11
PP IN EDITED SBAR->1
EDITED S :->18
VP VB NP->1085
VP VBD NP PP PP->22
NP ADJP NN NNS->10
SBAR SINV CC SBAR->1
ADJP JJ JJ RB S->1
PP  IN NP , .->1
VP VBG : ADVP->1
SQ VBP NP NP , ADVP->2
PP ADVP IN ADVP->1
VP MD DT VP->1
VP VBD , `` SBARQ->1
NP DT JJ NNS->169
VP VBZ RB ADVP NP->2
NP LST NN->2
VP VBZ RB ADJP  PP  PP->1
VP VBD NP SBAR , SBAR->1
NML NML HYPH PP->2
NP NP  NP ->44
NP NNP CC NNP NNP->1
NP NP , CC NP , PP->1
NP DT NN NN NNS->1
NP DT CD->15
NP NNP , NNP , FW->1
NP  CD SYM CD ->3
NP VBG JJ NNS->1
VP VBP ADVP PP->10
WHNP WHNP , PP->1
S S : S . ''->2
S `` UH , '' PRN , `` SBARQ->1
S INTJ ADVP EDITED NP VP SU->1
VP VBG ADVP , S , S , NP->1
NP NP JJ NN NN->5
FRAG NP INTJ SU->1
NP DT ADJP->12
NP DT JJ NN NN NN NN->1
S CC PP NP VP SU->2
S S , S , CC S->5
NP NP NNP NNPS->1
S ADVP , NP VP , SU->1
NP RB PRP$ JJ NN->1
VP VB ADVP NAC->1
NP DT NNP CD NN->1
WHNP WHNP WHPP->8
NML JJ VBN NNS->1
VP VBD NP PP , S->3
VP VBP INTJ NP ADVP->1
QP RB JJ IN CD->1
 CODE->493
VP VBZ RB NP->29
